arm_control.vcd
$date
	Sat Nov 05 09:55:57 2022
$end
$version
	Icarus Verilog
$end
$timescale
	1ps
$end
$scope module controller_tb $end
$var wire 2 ! ResultSrc [1:0] $end
$var wire 1 " RegWrite $end
$var wire 2 # RegSrc [1:0] $end
$var wire 1 $ PCWrite $end
$var wire 1 % MemWrite $end
$var wire 2 & ImmSrc [1:0] $end
$var wire 1 ' IRWrite $end
$var wire 1 ( AdrSrc $end
$var wire 2 ) ALUSrcB [1:0] $end
$var wire 2 * ALUSrcA [1:0] $end
$var wire 2 + ALUControl [1:0] $end
$var reg 4 , ALUFlags [3:0] $end
$var reg 20 - Instr [31:12] $end
$var reg 1 . clk $end
$var reg 1 / reset $end
$scope module dut $end
$var wire 4 0 ALUFlags [3:0] $end
$var wire 20 1 Instr [31:12] $end
$var wire 1 . clk $end
$var wire 1 / reset $end
$var wire 2 2 ResultSrc [1:0] $end
$var wire 1 " RegWrite $end
$var wire 1 3 RegW $end
$var wire 2 4 RegSrc [1:0] $end
$var wire 1 $ PCWrite $end
$var wire 1 5 PCS $end
$var wire 1 6 NextPC $end
$var wire 1 % MemWrite $end
$var wire 1 7 MemW $end
$var wire 2 8 ImmSrc [1:0] $end
$var wire 1 ' IRWrite $end
$var wire 2 9 FlagW [1:0] $end
$var wire 1 ( AdrSrc $end
$var wire 2 : ALUSrcB [1:0] $end
$var wire 2 ; ALUSrcA [1:0] $end
$var wire 2 < ALUControl [1:0] $end
$scope module cl $end
$var wire 4 = ALUFlags [3:0] $end
$var wire 4 > Cond [3:0] $end
$var wire 1 ? CondEx $end
$var wire 2 @ FlagWriteCond [1:0] $end
$var wire 1 % MemWrite $end
$var wire 1 $ PCWrite $end
$var wire 1 " RegWrite $end
$var wire 1 . clk $end
$var wire 1 / reset $end
$var wire 1 3 RegW $end
$var wire 1 5 PCS $end
$var wire 1 6 NextPC $end
$var wire 1 7 MemW $end
$var wire 4 A Flags [3:0] $end
$var wire 2 B FlagW [1:0] $end
$scope module cc $end
$var wire 4 C Cond [3:0] $end
$var wire 4 D Flags [3:0] $end
$var wire 1 E ge $end
$var wire 1 F zero $end
$var wire 1 G overflow $end
$var wire 1 H neg $end
$var wire 1 I carry $end
$var reg 1 J CondEx $end
$upscope $end
$scope module condexreg $end
$var wire 1 . clk $end
$var wire 1 ? d $end
$var wire 1 / reset $end
$var parameter 32 K WIDTH $end
$var reg 1 L q $end
$upscope $end
$scope module flagwritereg0 $end
$var wire 1 . clk $end
$var wire 2 M d [1:0] $end
$var wire 1 N en $end
$var wire 1 / reset $end
$var parameter 32 O WIDTH $end
$var reg 2 P q [1:0] $end
$upscope $end
$scope module flagwritereg1 $end
$var wire 1 . clk $end
$var wire 2 Q d [1:0] $end
$var wire 1 R en $end
$var wire 1 / reset $end
$var parameter 32 S WIDTH $end
$var reg 2 T q [1:0] $end
$upscope $end
$upscope $end
$scope module dec $end
$var wire 6 U Funct [5:0] $end
$var wire 2 V ImmSrc [1:0] $end
$var wire 2 W Op [1:0] $end
$var wire 1 5 PCS $end
$var wire 4 X Rd [3:0] $end
$var wire 1 . clk $end
$var wire 1 / reset $end
$var wire 2 Y ResultSrc [1:0] $end
$var wire 1 3 RegW $end
$var wire 2 Z RegSrc [1:0] $end
$var wire 1 6 NextPC $end
$var wire 1 7 MemW $end
$var wire 1 ' IRWrite $end
$var wire 1 [ Branch $end
$var wire 1 ( AdrSrc $end
$var wire 2 \ ALUSrcB [1:0] $end
$var wire 2 ] ALUSrcA [1:0] $end
$var wire 1 ^ ALUOp $end
$var reg 2 _ ALUControl [1:0] $end
$var reg 2 ` FlagW [1:0] $end
$scope module fsm $end
$var wire 6 a Funct [5:0] $end
$var wire 2 b Op [1:0] $end
$var wire 1 . clk $end
$var wire 1 / reset $end
$var wire 2 c ResultSrc [1:0] $end
$var wire 1 3 RegW $end
$var wire 1 6 NextPC $end
$var wire 1 7 MemW $end
$var wire 1 ' IRWrite $end
$var wire 1 [ Branch $end
$var wire 1 ( AdrSrc $end
$var wire 2 d ALUSrcB [1:0] $end
$var wire 2 e ALUSrcA [1:0] $end
$var wire 1 ^ ALUOp $end
$var parameter 4 f ALUWB $end
$var parameter 4 g BRANCH $end
$var parameter 4 h DECODE $end
$var parameter 4 i EXECUTEI $end
$var parameter 4 j EXECUTER $end
$var parameter 4 k FETCH $end
$var parameter 4 l MEMADR $end
$var parameter 4 m MEMREAD $end
$var parameter 4 n MEMWB $end
$var parameter 4 o MEMWRITE $end
$var parameter 4 p UNKNOWN $end
$var reg 13 q controls [12:0] $end
$var reg 4 r nextstate [3:0] $end
$var reg 4 s state [3:0] $end
$upscope $end
$upscope $end
$upscope $end
$upscope $end
$enddefinitions $end
$comment Show the parameter values. $end
$dumpall
b1010 p
b101 o
b100 n
b11 m
b10 l
b0 k
b110 j
b111 i
b1 h
b1001 g
b1000 f
b10 S
b10 O
b1 K
$end
#0
$dumpvars
b0 s
b1 r
b1000101001100 q
b1 e
b10 d
b10 c
b0 b
b100 a
b0 `
b0 _
0^
b1 ]
b10 \
0[
b0 Z
b10 Y
b0 X
b0 W
b0 V
b100 U
b0 T
0R
bx Q
b0 P
0N
bx M
0L
1J
0I
0H
0G
0F
1E
b0 D
b1110 C
b0 B
b0 A
b0 @
x?
b1110 >
bx =
b0 <
b1 ;
b10 :
b0 9
b0 8
07
16
05
b0 4
03
b10 2
b11100000010011110000 1
bx 0
1/
1.
b11100000010011110000 -
bx ,
b0 +
b1 *
b10 )
0(
1'
b0 &
0%
1$
b0 #
0"
b10 !
$end
#1000
0.
0/
#2000
0$
06
0'
b1001100 q
b110 r
xL
b1 s
1.
#3000
0.
#4000
b1 +
b1 <
b1 _
b0 !
b0 2
b0 Y
b0 c
b0 *
b0 ;
b0 ]
b0 e
b0 )
b0 :
b0 \
b0 d
1^
b1 q
b1000 r
b110 s
1.
#5000
0.
#6000
b0 +
b0 <
b0 _
x"
13
0^
b1000000000 q
b0 r
b1000 s
1.
#7000
0.
#8000
1$
0"
16
03
1'
b10 !
b10 2
b10 Y
b10 c
b1 *
b1 ;
b1 ]
b1 e
b10 )
b10 :
b10 \
b10 d
b1000101001100 q
b1 r
b0 s
1.
b101000 U
b101000 a
b10 X
b11100010100000000010 -
b11100010100000000010 1
#9000
0.
#10000
0$
06
0'
b1001100 q
b111 r
b1 s
1.
#11000
0.
#12000
b0 !
b0 2
b0 Y
b0 c
b0 *
b0 ;
b0 ]
b0 e
b1 )
b1 :
b1 \
b1 d
1^
b11 q
b1000 r
b111 s
1.
#13000
0.
#14000
x"
13
b0 )
b0 :
b0 \
b0 d
0^
b1000000000 q
b0 r
b1000 s
1.
#15000
0.
#16000
1$
0"
16
03
1'
b10 !
b10 2
b10 Y
b10 c
b1 *
b1 ;
b1 ]
b1 e
b10 )
b10 :
b10 \
b10 d
b1000101001100 q
b1 r
b0 s
1.
b11 X
b11100010100000000011 -
b11100010100000000011 1
#17000
0.
#18000
0$
06
0'
b1001100 q
b111 r
b1 s
1.
#19000
0.
#20000
b0 !
b0 2
b0 Y
b0 c
b0 *
b0 ;
b0 ]
b0 e
b1 )
b1 :
b1 \
b1 d
1^
b11 q
b1000 r
b111 s
1.
#21000
0.
#22000
x"
13
b0 )
b0 :
b0 \
b0 d
0^
b1000000000 q
b0 r
b1000 s
1.
#23000
0.
#24000
1$
0"
16
03
1'
b10 !
b10 2
b10 Y
b10 c
b1 *
b1 ;
b1 ]
b1 e
b10 )
b10 :
b10 \
b10 d
b1000101001100 q
b1 r
b0 s
1.
b100100 U
b100100 a
b111 X
b11100010010000110111 -
b11100010010000110111 1
#25000
0.
#26000
0$
06
0'
b1001100 q
b111 r
b1 s
1.
#27000
0.
#28000
b1 +
b1 <
b1 _
b0 !
b0 2
b0 Y
b0 c
b0 *
b0 ;
b0 ]
b0 e
b1 )
b1 :
b1 \
b1 d
1^
b11 q
b1000 r
b111 s
1.
#29000
0.
#30000
b0 +
b0 <
b0 _
x"
13
b0 )
b0 :
b0 \
b0 d
0^
b1000000000 q
b0 r
b1000 s
1.
#31000
0.
#32000
1$
0"
16
03
1'
b10 !
b10 2
b10 Y
b10 c
b1 *
b1 ;
b1 ]
b1 e
b10 )
b10 :
b10 \
b10 d
b1000101001100 q
b1 r
b0 s
1.
b11000 U
b11000 a
b100 X
b11100001100001110100 -
b11100001100001110100 1
#33000
0.
#34000
0$
06
0'
b1001100 q
b110 r
b1 s
1.
#35000
0.
#36000
b11 +
b11 <
b11 _
b0 !
b0 2
b0 Y
b0 c
b0 *
b0 ;
b0 ]
b0 e
b0 )
b0 :
b0 \
b0 d
1^
b1 q
b1000 r
b110 s
1.
#37000
0.
#38000
b0 +
b0 <
b0 _
x"
13
0^
b1000000000 q
b0 r
b1000 s
1.
#39000
0.
#40000
1$
0"
16
03
1'
b10 !
b10 2
b10 Y
b10 c
b1 *
b1 ;
b1 ]
b1 e
b10 )
b10 :
b10 \
b10 d
b1000101001100 q
b1 r
b0 s
1.
b0 U
b0 a
b101 X
b11100000000000110101 -
b11100000000000110101 1
#41000
0.
#42000
0$
06
0'
b1001100 q
b110 r
b1 s
1.
#43000
0.
#44000
b10 +
b10 <
b10 _
b0 !
b0 2
b0 Y
b0 c
b0 *
b0 ;
b0 ]
b0 e
b0 )
b0 :
b0 \
b0 d
1^
b1 q
b1000 r
b110 s
1.
#45000
0.
#46000
b0 +
b0 <
b0 _
x"
13
0^
b1000000000 q
b0 r
b1000 s
1.
#47000
0.
#48000
1$
0"
16
03
1'
b10 !
b10 2
b10 Y
b10 c
b1 *
b1 ;
b1 ]
b1 e
b10 )
b10 :
b10 \
b10 d
b1000101001100 q
b1 r
b0 s
1.
b1000 U
b1000 a
b11100000100001010101 -
b11100000100001010101 1
#49000
0.
#50000
0$
06
0'
b1001100 q
b110 r
b1 s
1.
#51000
0.
#52000
b0 !
b0 2
b0 Y
b0 c
b0 *
b0 ;
b0 ]
b0 e
b0 )
b0 :
b0 \
b0 d
1^
b1 q
b1000 r
b110 s
1.
#53000
0.
#54000
x"
13
0^
b1000000000 q
b0 r
b1000 s
1.
#55000
0.
#56000
1$
0"
16
03
1'
b10 !
b10 2
b10 Y
b10 c
b1 *
b1 ;
b1 ]
b1 e
b10 )
b10 :
b10 \
b10 d
b1000101001100 q
b1 r
b0 s
1.
b101 U
b101 a
b1000 X
b11100000010101011000 -
b11100000010101011000 1
#57000
0.
#58000
0$
06
0'
b1001100 q
b110 r
b1 s
1.
#59000
0.
#60000
xN
xR
bx @
b11 9
b11 B
b11 `
b1 +
b1 <
b1 _
b0 !
b0 2
b0 Y
b0 c
b0 *
b0 ;
b0 ]
b0 e
b0 )
b0 :
b0 \
b0 d
1^
b1 q
b1000 r
b110 s
1.
#61000
0.
#62000
b0 +
b0 <
b0 _
0N
0R
b0 @
x"
b0 9
b0 B
b0 `
13
0^
b1000000000 q
b0 r
b1000 s
1.
#63000
0.
#64000
1$
0"
16
03
1'
b10 !
b10 2
b10 Y
b10 c
b1 *
b1 ;
b1 ]
b1 e
b10 )
b10 :
b10 \
b10 d
b1000101001100 q
b1 r
b0 s
1.
0J
b10 &
b10 8
b10 V
b1 #
b1 4
b1 Z
b10 W
b10 b
b100000 U
b100000 a
b0 X
b0 >
b0 C
b1010000000000000 -
b1010000000000000 1
#65000
0.
#66000
0$
06
0'
b1001100 q
b1001 r
b1 s
1.
#67000
0.
#68000
x$
15
1[
b10 *
b10 ;
b10 ]
b10 e
b1 )
b1 :
b1 \
b1 d
b100001010010 q
b0 r
b1001 s
1.
#69000
0.
#70000
1$
05
16
0[
1'
b1 *
b1 ;
b1 ]
b1 e
b10 )
b10 :
b10 \
b10 d
b1000101001100 q
b1 r
b0 s
1.
#71000
0.
#72000
0$
06
0'
b1001100 q
b110 r
b1 s
1.
1J
b0 &
b0 8
b0 V
b0 #
b0 4
b0 Z
b0 W
b0 b
b101 U
b101 a
b1000 X
b1110 >
b1110 C
b11100000010100111000 -
b11100000010100111000 1
#73000
0.
#74000
xN
xR
bx @
b11 9
b11 B
b11 `
b1 +
b1 <
b1 _
b0 !
b0 2
b0 Y
b0 c
b0 *
b0 ;
b0 ]
b0 e
b0 )
b0 :
b0 \
b0 d
1^
b1 q
b1000 r
b110 s
1.
#75000
0.
#76000
b0 +
b0 <
b0 _
0N
0R
b0 @
x"
b0 9
b0 B
b0 `
13
0^
b1000000000 q
b0 r
b1000 s
1.
#77000
0.
#78000
1$
0"
16
03
1'
b10 !
b10 2
b10 Y
b10 c
b1 *
b1 ;
b1 ]
b1 e
b10 )
b10 :
b10 \
b10 d
b1000101001100 q
b1 r
b0 s
1.
#79000
0.
#80000
0$
06
0'
b1001100 q
b1001 r
b1 s
1.
b10 &
b10 8
b10 V
b1 #
b1 4
b1 Z
b10 W
b10 b
b100000 U
b100000 a
b0 X
b1010 >
b1010 C
b10101010000000000000 -
b10101010000000000000 1
#81000
0.
#82000
x$
15
1[
b10 *
b10 ;
b10 ]
b10 e
b1 )
b1 :
b1 \
b1 d
b100001010010 q
b0 r
b1001 s
1.
#83000
0.
#84000
1$
05
16
0[
1'
b1 *
b1 ;
b1 ]
b1 e
b10 )
b10 :
b10 \
b10 d
b1000101001100 q
b1 r
b0 s
1.
#85000
0.
#86000
0$
06
0'
b1001100 q
b1001 r
b1 s
1.
#87000
0.
#88000
b0 !
b0 2
b0 Y
b0 c
b0 *
b0 ;
b0 ]
b0 e
b1 )
b1 :
b1 \
b1 d
1^
b11 q
b111 s
1.
b1000 r
b0 &
b0 8
b0 V
b0 #
b0 4
b0 Z
b0 W
b0 b
b101000 U
b101000 a
b101 X
b1110 >
b1110 C
b11100010100000000101 -
b11100010100000000101 1
#89000
0.
#90000
x"
13
b0 )
b0 :
b0 \
b0 d
0^
b1000000000 q
b0 r
b1000 s
1.
#91000
0.
#92000
1$
0"
16
03
1'
b10 !
b10 2
b10 Y
b10 c
b1 *
b1 ;
b1 ]
b1 e
b10 )
b10 :
b10 \
b10 d
b1000101001100 q
b1 r
b0 s
1.
#93000
0.
#94000
0$
06
0'
b1001100 q
b111 r
b1 s
1.
#95000
0.
#96000
xN
xR
bx @
b11 9
b11 B
b11 `
b1 +
b1 <
b1 _
b0 !
b0 2
b0 Y
b0 c
b0 *
b0 ;
b0 ]
b0 e
b0 )
b0 :
b0 \
b0 d
1^
b1 q
b110 s
1.
b1000 r
b101 U
b101 a
b1000 X
b11100000010101111000 -
b11100000010101111000 1
#97000
0.
#98000
b0 +
b0 <
b0 _
0N
0R
b0 @
x"
b0 9
b0 B
b0 `
13
0^
b1000000000 q
b0 r
b1000 s
1.
#99000
0.
#100000
1$
0"
16
03
1'
b10 !
b10 2
b10 Y
b10 c
b1 *
b1 ;
b1 ]
b1 e
b10 )
b10 :
b10 \
b10 d
b1000101001100 q
b1 r
b0 s
1.
#101000
0.
#102000
0$
06
0'
b1001100 q
b110 r
b1 s
1.
#103000
0.
#104000
b0 !
b0 2
b0 Y
b0 c
b0 *
b0 ;
b0 ]
b0 e
b1 )
b1 :
b1 \
b1 d
1^
b11 q
b111 s
1.
b1000 r
0J
b101000 U
b101000 a
b111 X
b1011 >
b1011 C
b10110010100001010111 -
b10110010100001010111 1
#105000
0.
#106000
x"
13
b0 )
b0 :
b0 \
b0 d
0^
b1000000000 q
b0 r
b1000 s
1.
#107000
0.
#108000
1$
0"
16
03
1'
b10 !
b10 2
b10 Y
b10 c
b1 *
b1 ;
b1 ]
b1 e
b10 )
b10 :
b10 \
b10 d
b1000101001100 q
b1 r
b0 s
1.
#109000
0.
#110000
0$
06
0'
b1001100 q
b111 r
b1 s
1.
#111000
0.
#112000
b1 +
b1 <
b1 _
b0 !
b0 2
b0 Y
b0 c
b0 *
b0 ;
b0 ]
b0 e
b0 )
b0 :
b0 \
b0 d
1^
b1 q
b110 s
1.
b1000 r
1J
b100 U
b100 a
b1110 >
b1110 C
b11100000010001110111 -
b11100000010001110111 1
#113000
0.
#114000
b0 +
b0 <
b0 _
x"
13
0^
b1000000000 q
b0 r
b1000 s
1.
#115000
0.
#116000
1$
0"
16
03
1'
b10 !
b10 2
b10 Y
b10 c
b1 *
b1 ;
b1 ]
b1 e
b10 )
b10 :
b10 \
b10 d
b1000101001100 q
b1 r
b0 s
1.
#117000
0.
#118000
0$
06
0'
b1001100 q
b110 r
b1 s
1.
#119000
0.
#120000
b0 !
b0 2
b0 Y
b0 c
b0 *
b0 ;
b0 ]
b0 e
b1 )
b1 :
b1 \
b1 d
b10 q
b10 s
1.
b101 r
b1 &
b1 8
b1 V
b10 #
b10 4
b10 Z
b1 W
b1 b
b11000 U
b11000 a
b11100101100000110111 -
b11100101100000110111 1
#121000
0.
#122000
x%
17
1(
b0 )
b0 :
b0 \
b0 d
b10010000000 q
b0 r
b101 s
1.
#123000
0.
#124000
1$
0%
16
07
1'
0(
b10 !
b10 2
b10 Y
b10 c
b1 *
b1 ;
b1 ]
b1 e
b10 )
b10 :
b10 \
b10 d
b1000101001100 q
b1 r
b0 s
1.
#125000
0.
#126000
0$
06
0'
b1001100 q
b10 r
b1 s
1.
#127000
0.
#128000
b0 !
b0 2
b0 Y
b0 c
b0 *
b0 ;
b0 ]
b0 e
b1 )
b1 :
b1 \
b1 d
b10 q
b11 r
b10 s
1.
b11001 U
b11001 a
b10 X
b11100101100100000010 -
b11100101100100000010 1
#129000
0.
#130000
1(
b0 )
b0 :
b0 \
b0 d
b10000000 q
b100 r
b11 s
1.
#131000
0.
#132000
x"
13
0(
b1 !
b1 2
b1 Y
b1 c
b1000100000 q
b0 r
b100 s
1.
#133000
0.
#134000
1$
0"
16
03
1'
b10 !
b10 2
b10 Y
b10 c
b1 *
b1 ;
b1 ]
b1 e
b10 )
b10 :
b10 \
b10 d
b1000101001100 q
b1 r
b0 s
1.
#135000
0.
#136000
0$
06
0'
b1001100 q
b110 r
b1 s
1.
b0 &
b0 8
b0 V
b0 #
b0 4
b0 Z
b0 W
b0 b
b1000 U
b1000 a
b1111 X
b11100000100011111111 -
b11100000100011111111 1
#137000
0.
#138000
b0 !
b0 2
b0 Y
b0 c
b0 *
b0 ;
b0 ]
b0 e
b0 )
b0 :
b0 \
b0 d
1^
b1 q
b1000 r
b110 s
1.
#139000
0.
#140000
x$
15
x"
13
0^
b1000000000 q
b0 r
b1000 s
1.
#141000
0.
#142000
05
1$
0"
16
03
1'
b10 !
b10 2
b10 Y
b10 c
b1 *
b1 ;
b1 ]
b1 e
b10 )
b10 :
b10 \
b10 d
b1000101001100 q
b1 r
b0 s
1.
#143000
0.
#144000
0$
06
0'
b1001100 q
b111 r
b1 s
1.
b101000 U
b101000 a
b10 X
b11100010100000000010 -
b11100010100000000010 1
#145000
0.
#146000
b0 !
b0 2
b0 Y
b0 c
b0 *
b0 ;
b0 ]
b0 e
b1 )
b1 :
b1 \
b1 d
1^
b11 q
b1000 r
b111 s
1.
#147000
0.
#148000
x"
13
b0 )
b0 :
b0 \
b0 d
0^
b1000000000 q
b0 r
b1000 s
1.
#149000
0.
#150000
1$
0"
16
03
1'
b10 !
b10 2
b10 Y
b10 c
b1 *
b1 ;
b1 ]
b1 e
b10 )
b10 :
b10 \
b10 d
b1000101001100 q
b1 r
b0 s
1.
#151000
0.
#152000
0$
06
0'
b1001100 q
b1001 r
b1 s
1.
b10 &
b10 8
b10 V
b1 #
b1 4
b1 Z
b10 W
b10 b
b100000 U
b100000 a
b0 X
b11101010000000000000 -
b11101010000000000000 1
#153000
0.
#154000
x$
15
1[
b10 *
b10 ;
b10 ]
b10 e
b1 )
b1 :
b1 \
b1 d
b100001010010 q
b0 r
b1001 s
1.
#155000
0.
#156000
1$
05
16
0[
1'
b1 *
b1 ;
b1 ]
b1 e
b10 )
b10 :
b10 \
b10 d
b1000101001100 q
b1 r
b0 s
1.
#157000
0.
#158000
0$
06
0'
b1001100 q
b1001 r
b1 s
1.
#159000
0.
#160000
b0 !
b0 2
b0 Y
b0 c
b0 *
b0 ;
b0 ]
b0 e
b1 )
b1 :
b1 \
b1 d
1^
b11 q
b111 s
1.
b1000 r
b0 &
b0 8
b0 V
b0 #
b0 4
b0 Z
b0 W
b0 b
b101000 U
b101000 a
b10 X
b11100010100000000010 -
b11100010100000000010 1
#161000
0.
#162000
x"
13
b0 )
b0 :
b0 \
b0 d
0^
b1000000000 q
b0 r
b1000 s
1.
#163000
0.
#164000
1$
0"
16
03
1'
b10 !
b10 2
b10 Y
b10 c
b1 *
b1 ;
b1 ]
b1 e
b10 )
b10 :
b10 \
b10 d
b1000101001100 q
b1 r
b0 s
1.
#165000
0.
#166000
0$
06
0'
b1001100 q
b111 r
b1 s
1.
#167000
0.
#168000
b0 !
b0 2
b0 Y
b0 c
b0 *
b0 ;
b0 ]
b0 e
b1 )
b1 :
b1 \
b1 d
1^
b11 q
b1000 r
b111 s
1.
#169000
0.
#170000
x"
13
b0 )
b0 :
b0 \
b0 d
0^
b1000000000 q
b0 r
b1000 s
1.
#171000
0.
#172000
1$
0"
16
03
1'
b10 !
b10 2
b10 Y
b10 c
b1 *
b1 ;
b1 ]
b1 e
b10 )
b10 :
b10 \
b10 d
b1000101001100 q
b1 r
b0 s
1.
#173000
0.
#174000
0$
06
0'
b1001100 q
b111 r
b1 s
1.
#175000
0.
#176000
b0 !
b0 2
b0 Y
b0 c
b0 *
b0 ;
b0 ]
b0 e
b1 )
b1 :
b1 \
b1 d
b10 q
b10 s
1.
b101 r
b1 &
b1 8
b1 V
b10 #
b10 4
b10 Z
b1 W
b1 b
b11000 U
b11000 a
b11100101100000000010 -
b11100101100000000010 1
#177000
0.
#178000
x%
17
1(
b0 )
b0 :
b0 \
b0 d
b10010000000 q
b0 r
b101 s
1.
#179000
0.
#180000
1$
0%
16
07
1'
0(
b10 !
b10 2
b10 Y
b10 c
b1 *
b1 ;
b1 ]
b1 e
b10 )
b10 :
b10 \
b10 d
b1000101001100 q
b1 r
b0 s
1.
#181000
0.
#182000
0$
06
0'
b1001100 q
b10 r
b1 s
1.
#183000
0.
#184000
b0 !
b0 2
b0 Y
b0 c
b0 *
b0 ;
b0 ]
b0 e
b1 )
b1 :
b1 \
b1 d
b10 q
b101 r
b10 s
1.
