arm_control.vcd
$date
	Thu Nov  3 17:36:18 2022
$end
$version
	Icarus Verilog
$end
$timescale
	1ps
$end
$scope module controller_tb $end
$var wire 2 ! ResultSrc [1:0] $end
$var wire 1 " RegWrite $end
$var wire 2 # RegSrc [1:0] $end
$var wire 1 $ PCWrite $end
$var wire 1 % MemWrite $end
$var wire 2 & ImmSrc [1:0] $end
$var wire 1 ' IRWrite $end
$var wire 1 ( AdrSrc $end
$var wire 2 ) ALUSrcB [1:0] $end
$var wire 2 * ALUSrcA [1:0] $end
$var wire 2 + ALUControl [1:0] $end
$var reg 4 , ALUFlags [3:0] $end
$var reg 20 - Instr [31:12] $end
$var reg 1 . clk $end
$var reg 1 / reset $end
$scope module dut $end
$var wire 4 0 ALUFlags [3:0] $end
$var wire 20 1 Instr [31:12] $end
$var wire 1 . clk $end
$var wire 1 / reset $end
$var wire 2 2 ResultSrc [1:0] $end
$var wire 1 " RegWrite $end
$var wire 1 3 RegW $end
$var wire 2 4 RegSrc [1:0] $end
$var wire 1 $ PCWrite $end
$var wire 1 5 PCS $end
$var wire 1 6 NextPC $end
$var wire 1 % MemWrite $end
$var wire 1 7 MemW $end
$var wire 2 8 ImmSrc [1:0] $end
$var wire 1 ' IRWrite $end
$var wire 2 9 FlagW [1:0] $end
$var wire 1 ( AdrSrc $end
$var wire 2 : ALUSrcB [1:0] $end
$var wire 2 ; ALUSrcA [1:0] $end
$var wire 2 < ALUControl [1:0] $end
$scope module cl $end
$var wire 4 = ALUFlags [3:0] $end
$var wire 4 > Cond [3:0] $end
$var wire 2 ? FlagWriteCond [1:0] $end
$var wire 1 % MemWrite $end
$var wire 1 $ PCWrite $end
$var wire 1 " RegWrite $end
$var wire 1 . clk $end
$var wire 1 / reset $end
$var wire 1 3 RegW $end
$var wire 1 5 PCS $end
$var wire 1 6 NextPC $end
$var wire 1 7 MemW $end
$var wire 4 @ Flags [3:0] $end
$var wire 2 A FlagW [1:0] $end
$var wire 1 B CondEx $end
$scope module cc $end
$var wire 4 C Cond [3:0] $end
$var wire 4 D Flags [3:0] $end
$var wire 1 E ge $end
$var wire 1 F zero $end
$var wire 1 G overflow $end
$var wire 1 H neg $end
$var wire 1 I carry $end
$var reg 1 B CondEx $end
$upscope $end
$scope module flagwritereg0 $end
$var wire 1 . clk $end
$var wire 2 J d [1:0] $end
$var wire 1 K en $end
$var wire 1 / reset $end
$var reg 2 L q [1:0] $end
$upscope $end
$scope module flagwritereg1 $end
$var wire 1 . clk $end
$var wire 2 M d [1:0] $end
$var wire 1 N en $end
$var wire 1 / reset $end
$var reg 2 O q [1:0] $end
$upscope $end
$upscope $end
$scope module dec $end
$var wire 6 P Funct [5:0] $end
$var wire 2 Q ImmSrc [1:0] $end
$var wire 2 R Op [1:0] $end
$var wire 1 5 PCS $end
$var wire 4 S Rd [3:0] $end
$var wire 1 . clk $end
$var wire 1 / reset $end
$var wire 2 T ResultSrc [1:0] $end
$var wire 1 3 RegW $end
$var wire 2 U RegSrc [1:0] $end
$var wire 1 6 NextPC $end
$var wire 1 7 MemW $end
$var wire 1 ' IRWrite $end
$var wire 1 V Branch $end
$var wire 1 ( AdrSrc $end
$var wire 2 W ALUSrcB [1:0] $end
$var wire 2 X ALUSrcA [1:0] $end
$var wire 1 Y ALUOp $end
$var reg 2 Z ALUControl [1:0] $end
$var reg 2 [ FlagW [1:0] $end
$scope module fsm $end
$var wire 6 \ Funct [5:0] $end
$var wire 2 ] Op [1:0] $end
$var wire 1 . clk $end
$var wire 1 / reset $end
$var wire 2 ^ ResultSrc [1:0] $end
$var wire 1 3 RegW $end
$var wire 1 6 NextPC $end
$var wire 1 7 MemW $end
$var wire 1 ' IRWrite $end
$var wire 1 V Branch $end
$var wire 1 ( AdrSrc $end
$var wire 2 _ ALUSrcB [1:0] $end
$var wire 2 ` ALUSrcA [1:0] $end
$var wire 1 Y ALUOp $end
$var reg 13 a controls [12:0] $end
$var reg 4 b nextstate [3:0] $end
$var reg 4 c state [3:0] $end
$upscope $end
$upscope $end
$upscope $end
$upscope $end
$enddefinitions $end
#0
$dumpvars
b0 c
b1 b
b1000101001100 a
b1 `
b10 _
b10 ^
b0 ]
b100 \
b0 [
b0 Z
0Y
b1 X
b10 W
0V
b0 U
b10 T
b0 S
b0 R
b0 Q
b100 P
b0 O
0N
bx M
b0 L
0K
bx J
0I
0H
0G
0F
1E
b0 D
b1110 C
1B
b0 A
b0 @
b0 ?
b1110 >
bx =
b0 <
b1 ;
b10 :
b0 9
b0 8
07
16
05
b0 4
03
b10 2
b11100000010011110000 1
bx 0
1/
1.
b11100000010011110000 -
bx ,
b0 +
b1 *
b10 )
0(
1'
b0 &
0%
1$
b0 #
0"
b10 !
$end
#1000
0.
0/
#2000
0$
06
0'
b1001100 a
b110 b
b1 c
1.
#3000
0.
#4000
b1 +
b1 <
b1 Z
b0 !
b0 2
b0 T
b0 ^
b0 *
b0 ;
b0 X
b0 `
b0 )
b0 :
b0 W
b0 _
1Y
b1 a
b1000 b
b110 c
1.
#5000
0.
#6000
b0 +
b0 <
b0 Z
1"
13
0Y
b1000000000 a
b0 b
b1000 c
1.
#7000
0.
#8000
1$
0"
16
03
1'
b10 !
b10 2
b10 T
b10 ^
b1 *
b1 ;
b1 X
b1 `
b10 )
b10 :
b10 W
b10 _
b1000101001100 a
b1 b
b0 c
1.
b101000 P
b101000 \
b10 S
b11100010100000000010 -
b11100010100000000010 1
#9000
0.
#10000
0$
06
0'
b1001100 a
b111 b
b1 c
1.
#11000
0.
#12000
b0 !
b0 2
b0 T
b0 ^
b0 *
b0 ;
b0 X
b0 `
b1 )
b1 :
b1 W
b1 _
1Y
b11 a
b1000 b
b111 c
1.
#13000
0.
#14000
1"
13
b0 )
b0 :
b0 W
b0 _
0Y
b1000000000 a
b0 b
b1000 c
1.
#15000
0.
#16000
1$
0"
16
03
1'
b10 !
b10 2
b10 T
b10 ^
b1 *
b1 ;
b1 X
b1 `
b10 )
b10 :
b10 W
b10 _
b1000101001100 a
b1 b
b0 c
1.
b11 S
b11100010100000000011 -
b11100010100000000011 1
#17000
0.
#18000
0$
06
0'
b1001100 a
b111 b
b1 c
1.
#19000
0.
#20000
b0 !
b0 2
b0 T
b0 ^
b0 *
b0 ;
b0 X
b0 `
b1 )
b1 :
b1 W
b1 _
1Y
b11 a
b1000 b
b111 c
1.
#21000
0.
#22000
1"
13
b0 )
b0 :
b0 W
b0 _
0Y
b1000000000 a
b0 b
b1000 c
1.
#23000
0.
#24000
1$
0"
16
03
1'
b10 !
b10 2
b10 T
b10 ^
b1 *
b1 ;
b1 X
b1 `
b10 )
b10 :
b10 W
b10 _
b1000101001100 a
b1 b
b0 c
1.
b100100 P
b100100 \
b111 S
b11100010010000110111 -
b11100010010000110111 1
#25000
0.
#26000
0$
06
0'
b1001100 a
b111 b
b1 c
1.
#27000
0.
#28000
b1 +
b1 <
b1 Z
b0 !
b0 2
b0 T
b0 ^
b0 *
b0 ;
b0 X
b0 `
b1 )
b1 :
b1 W
b1 _
1Y
b11 a
b1000 b
b111 c
1.
#29000
0.
#30000
b0 +
b0 <
b0 Z
1"
13
b0 )
b0 :
b0 W
b0 _
0Y
b1000000000 a
b0 b
b1000 c
1.
#31000
0.
#32000
1$
0"
16
03
1'
b10 !
b10 2
b10 T
b10 ^
b1 *
b1 ;
b1 X
b1 `
b10 )
b10 :
b10 W
b10 _
b1000101001100 a
b1 b
b0 c
1.
b11000 P
b11000 \
b100 S
b11100001100001110100 -
b11100001100001110100 1
#33000
0.
#34000
0$
06
0'
b1001100 a
b110 b
b1 c
1.
#35000
0.
#36000
b11 +
b11 <
b11 Z
b0 !
b0 2
b0 T
b0 ^
b0 *
b0 ;
b0 X
b0 `
b0 )
b0 :
b0 W
b0 _
1Y
b1 a
b1000 b
b110 c
1.
#37000
0.
#38000
b0 +
b0 <
b0 Z
1"
13
0Y
b1000000000 a
b0 b
b1000 c
1.
#39000
0.
#40000
1$
0"
16
03
1'
b10 !
b10 2
b10 T
b10 ^
b1 *
b1 ;
b1 X
b1 `
b10 )
b10 :
b10 W
b10 _
b1000101001100 a
b1 b
b0 c
1.
b0 P
b0 \
b101 S
b11100000000000110101 -
b11100000000000110101 1
#41000
0.
#42000
0$
06
0'
b1001100 a
b110 b
b1 c
1.
#43000
0.
#44000
b10 +
b10 <
b10 Z
b0 !
b0 2
b0 T
b0 ^
b0 *
b0 ;
b0 X
b0 `
b0 )
b0 :
b0 W
b0 _
1Y
b1 a
b1000 b
b110 c
1.
#45000
0.
#46000
b0 +
b0 <
b0 Z
1"
13
0Y
b1000000000 a
b0 b
b1000 c
1.
#47000
0.
#48000
1$
0"
16
03
1'
b10 !
b10 2
b10 T
b10 ^
b1 *
b1 ;
b1 X
b1 `
b10 )
b10 :
b10 W
b10 _
b1000101001100 a
b1 b
b0 c
1.
b1000 P
b1000 \
b11100000100001010101 -
b11100000100001010101 1
#49000
0.
#50000
0$
06
0'
b1001100 a
b110 b
b1 c
1.
#51000
0.
#52000
b0 !
b0 2
b0 T
b0 ^
b0 *
b0 ;
b0 X
b0 `
b0 )
b0 :
b0 W
b0 _
1Y
b1 a
b1000 b
b110 c
1.
#53000
0.
#54000
1"
13
0Y
b1000000000 a
b0 b
b1000 c
1.
#55000
0.
#56000
1$
0"
16
03
1'
b10 !
b10 2
b10 T
b10 ^
b1 *
b1 ;
b1 X
b1 `
b10 )
b10 :
b10 W
b10 _
b1000101001100 a
b1 b
b0 c
1.
b101 P
b101 \
b1000 S
b11100000010101011000 -
b11100000010101011000 1
#57000
0.
#58000
0$
06
0'
b1001100 a
b110 b
b1 c
1.
#59000
0.
#60000
1K
1N
b11 ?
b11 9
b11 A
b11 [
b1 +
b1 <
b1 Z
b0 !
b0 2
b0 T
b0 ^
b0 *
b0 ;
b0 X
b0 `
b0 )
b0 :
b0 W
b0 _
1Y
b1 a
b1000 b
b110 c
1.
#61000
0.
#62000
b0 +
b0 <
b0 Z
0K
0N
b0 ?
1"
b0 9
b0 A
b0 [
xE
13
0Y
xI
xG
xH
xF
b1000000000 a
b0 b
bx O
bx @
bx D
bx L
b1000 c
1.
#63000
0.
#64000
1$
16
03
1'
b10 !
b10 2
b10 T
b10 ^
b1 *
b1 ;
b1 X
b1 `
b10 )
b10 :
b10 W
b10 _
b1000101001100 a
b1 b
b0 c
1.
0"
xB
b10 &
b10 8
b10 Q
b1 #
b1 4
b1 U
b10 R
b10 ]
b100000 P
b100000 \
b0 S
b0 >
b0 C
b1010000000000000 -
b1010000000000000 1
#65000
0.
#66000
0$
06
0'
b1001100 a
b1001 b
b1 c
1.
#67000
0.
#68000
x$
15
1V
b10 *
b10 ;
b10 X
b10 `
b1 )
b1 :
b1 W
b1 _
b100001010010 a
b0 b
b1001 c
1.
#69000
0.
#70000
1$
05
16
0V
1'
b1 *
b1 ;
b1 X
b1 `
b10 )
b10 :
b10 W
b10 _
b1000101001100 a
b1 b
b0 c
1.
#71000
0.
#72000
0$
06
0'
b1001100 a
b110 b
b1 c
1.
1B
b0 &
b0 8
b0 Q
b0 #
b0 4
b0 U
b0 R
b0 ]
b101 P
b101 \
b1000 S
b1110 >
b1110 C
b11100000010100111000 -
b11100000010100111000 1
#73000
0.
#74000
1K
1N
b11 ?
b11 9
b11 A
b11 [
b1 +
b1 <
b1 Z
b0 !
b0 2
b0 T
b0 ^
b0 *
b0 ;
b0 X
b0 `
b0 )
b0 :
b0 W
b0 _
1Y
b1 a
b1000 b
b110 c
1.
#75000
0.
#76000
b0 +
b0 <
b0 Z
0K
0N
b0 ?
1"
b0 9
b0 A
b0 [
13
0Y
b1000000000 a
b0 b
b1000 c
1.
#77000
0.
#78000
1$
0"
16
03
1'
b10 !
b10 2
b10 T
b10 ^
b1 *
b1 ;
b1 X
b1 `
b10 )
b10 :
b10 W
b10 _
b1000101001100 a
b1 b
b0 c
1.
#79000
0.
#80000
0$
06
0'
b1001100 a
b1001 b
b1 c
1.
xB
b10 &
b10 8
b10 Q
b1 #
b1 4
b1 U
b10 R
b10 ]
b100000 P
b100000 \
b0 S
b1010 >
b1010 C
b10101010000000000000 -
b10101010000000000000 1
#81000
0.
#82000
x$
15
1V
b10 *
b10 ;
b10 X
b10 `
b1 )
b1 :
b1 W
b1 _
b100001010010 a
b0 b
b1001 c
1.
#83000
0.
#84000
1$
05
16
0V
1'
b1 *
b1 ;
b1 X
b1 `
b10 )
b10 :
b10 W
b10 _
b1000101001100 a
b1 b
b0 c
1.
#85000
0.
#86000
0$
06
0'
b1001100 a
b1001 b
b1 c
1.
#87000
0.
#88000
b0 !
b0 2
b0 T
b0 ^
b0 *
b0 ;
b0 X
b0 `
b1 )
b1 :
b1 W
b1 _
1Y
b11 a
b111 c
1.
b1000 b
1B
b0 &
b0 8
b0 Q
b0 #
b0 4
b0 U
b0 R
b0 ]
b101000 P
b101000 \
b101 S
b1110 >
b1110 C
b11100010100000000101 -
b11100010100000000101 1
#89000
0.
#90000
1"
13
b0 )
b0 :
b0 W
b0 _
0Y
b1000000000 a
b0 b
b1000 c
1.
#91000
0.
#92000
1$
0"
16
03
1'
b10 !
b10 2
b10 T
b10 ^
b1 *
b1 ;
b1 X
b1 `
b10 )
b10 :
b10 W
b10 _
b1000101001100 a
b1 b
b0 c
1.
#93000
0.
#94000
0$
06
0'
b1001100 a
b111 b
b1 c
1.
#95000
0.
#96000
1K
1N
b11 ?
b11 9
b11 A
b11 [
b1 +
b1 <
b1 Z
b0 !
b0 2
b0 T
b0 ^
b0 *
b0 ;
b0 X
b0 `
b0 )
b0 :
b0 W
b0 _
1Y
b1 a
b110 c
1.
b1000 b
b101 P
b101 \
b1000 S
b11100000010101111000 -
b11100000010101111000 1
#97000
0.
#98000
b0 +
b0 <
b0 Z
0K
0N
b0 ?
1"
b0 9
b0 A
b0 [
13
0Y
b1000000000 a
b0 b
b1000 c
1.
#99000
0.
#100000
1$
0"
16
03
1'
b10 !
b10 2
b10 T
b10 ^
b1 *
b1 ;
b1 X
b1 `
b10 )
b10 :
b10 W
b10 _
b1000101001100 a
b1 b
b0 c
1.
#101000
0.
#102000
0$
06
0'
b1001100 a
b110 b
b1 c
1.
#103000
0.
#104000
b0 !
b0 2
b0 T
b0 ^
b0 *
b0 ;
b0 X
b0 `
b1 )
b1 :
b1 W
b1 _
1Y
b11 a
b111 c
1.
b1000 b
xB
b101000 P
b101000 \
b111 S
b1011 >
b1011 C
b10110010100001010111 -
b10110010100001010111 1
#105000
0.
#106000
x"
13
b0 )
b0 :
b0 W
b0 _
0Y
b1000000000 a
b0 b
b1000 c
1.
#107000
0.
#108000
1$
0"
16
03
1'
b10 !
b10 2
b10 T
b10 ^
b1 *
b1 ;
b1 X
b1 `
b10 )
b10 :
b10 W
b10 _
b1000101001100 a
b1 b
b0 c
1.
#109000
0.
#110000
0$
06
0'
b1001100 a
b111 b
b1 c
1.
#111000
0.
#112000
b1 +
b1 <
b1 Z
b0 !
b0 2
b0 T
b0 ^
b0 *
b0 ;
b0 X
b0 `
b0 )
b0 :
b0 W
b0 _
1Y
b1 a
b110 c
1.
b1000 b
1B
b100 P
b100 \
b1110 >
b1110 C
b11100000010001110111 -
b11100000010001110111 1
#113000
0.
#114000
b0 +
b0 <
b0 Z
1"
13
0Y
b1000000000 a
b0 b
b1000 c
1.
#115000
0.
#116000
1$
0"
16
03
1'
b10 !
b10 2
b10 T
b10 ^
b1 *
b1 ;
b1 X
b1 `
b10 )
b10 :
b10 W
b10 _
b1000101001100 a
b1 b
b0 c
1.
#117000
0.
#118000
0$
06
0'
b1001100 a
b110 b
b1 c
1.
#119000
0.
#120000
b0 !
b0 2
b0 T
b0 ^
b0 *
b0 ;
b0 X
b0 `
b1 )
b1 :
b1 W
b1 _
b10 a
b10 c
1.
b101 b
b1 &
b1 8
b1 Q
b10 #
b10 4
b10 U
b1 R
b1 ]
b11000 P
b11000 \
b11100101100000110111 -
b11100101100000110111 1
#121000
0.
#122000
1%
17
1(
b0 )
b0 :
b0 W
b0 _
b10010000000 a
b0 b
b101 c
1.
#123000
0.
#124000
1$
0%
16
07
1'
0(
b10 !
b10 2
b10 T
b10 ^
b1 *
b1 ;
b1 X
b1 `
b10 )
b10 :
b10 W
b10 _
b1000101001100 a
b1 b
b0 c
1.
#125000
0.
#126000
0$
06
0'
b1001100 a
b10 b
b1 c
1.
#127000
0.
#128000
b0 !
b0 2
b0 T
b0 ^
b0 *
b0 ;
b0 X
b0 `
b1 )
b1 :
b1 W
b1 _
b10 a
b11 b
b10 c
1.
b11001 P
b11001 \
b10 S
b11100101100100000010 -
b11100101100100000010 1
#129000
0.
#130000
1(
b0 )
b0 :
b0 W
b0 _
b10000000 a
b100 b
b11 c
1.
#131000
0.
#132000
1"
13
0(
b1 !
b1 2
b1 T
b1 ^
b1000100000 a
b0 b
b100 c
1.
#133000
0.
#134000
1$
0"
16
03
1'
b10 !
b10 2
b10 T
b10 ^
b1 *
b1 ;
b1 X
b1 `
b10 )
b10 :
b10 W
b10 _
b1000101001100 a
b1 b
b0 c
1.
#135000
0.
#136000
0$
06
0'
b1001100 a
b110 b
b1 c
1.
b0 &
b0 8
b0 Q
b0 #
b0 4
b0 U
b0 R
b0 ]
b1000 P
b1000 \
b1111 S
b11100000100011111111 -
b11100000100011111111 1
#137000
0.
#138000
b0 !
b0 2
b0 T
b0 ^
b0 *
b0 ;
b0 X
b0 `
b0 )
b0 :
b0 W
b0 _
1Y
b1 a
b1000 b
b110 c
1.
#139000
0.
#140000
1$
15
1"
13
0Y
b1000000000 a
b0 b
b1000 c
1.
#141000
0.
#142000
05
0"
16
03
1'
b10 !
b10 2
b10 T
b10 ^
b1 *
b1 ;
b1 X
b1 `
b10 )
b10 :
b10 W
b10 _
b1000101001100 a
b1 b
b0 c
1.
#143000
0.
#144000
0$
06
0'
b1001100 a
b111 b
b1 c
1.
b101000 P
b101000 \
b10 S
b11100010100000000010 -
b11100010100000000010 1
#145000
0.
#146000
b0 !
b0 2
b0 T
b0 ^
b0 *
b0 ;
b0 X
b0 `
b1 )
b1 :
b1 W
b1 _
1Y
b11 a
b1000 b
b111 c
1.
#147000
0.
#148000
1"
13
b0 )
b0 :
b0 W
b0 _
0Y
b1000000000 a
b0 b
b1000 c
1.
#149000
0.
#150000
1$
0"
16
03
1'
b10 !
b10 2
b10 T
b10 ^
b1 *
b1 ;
b1 X
b1 `
b10 )
b10 :
b10 W
b10 _
b1000101001100 a
b1 b
b0 c
1.
#151000
0.
#152000
0$
06
0'
b1001100 a
b1001 b
b1 c
1.
b10 &
b10 8
b10 Q
b1 #
b1 4
b1 U
b10 R
b10 ]
b100000 P
b100000 \
b0 S
b11101010000000000000 -
b11101010000000000000 1
#153000
0.
#154000
1$
15
1V
b10 *
b10 ;
b10 X
b10 `
b1 )
b1 :
b1 W
b1 _
b100001010010 a
b0 b
b1001 c
1.
#155000
0.
#156000
05
16
0V
1'
b1 *
b1 ;
b1 X
b1 `
b10 )
b10 :
b10 W
b10 _
b1000101001100 a
b1 b
b0 c
1.
#157000
0.
#158000
0$
06
0'
b1001100 a
b1001 b
b1 c
1.
#159000
0.
#160000
b0 !
b0 2
b0 T
b0 ^
b0 *
b0 ;
b0 X
b0 `
b1 )
b1 :
b1 W
b1 _
1Y
b11 a
b111 c
1.
b1000 b
b0 &
b0 8
b0 Q
b0 #
b0 4
b0 U
b0 R
b0 ]
b101000 P
b101000 \
b10 S
b11100010100000000010 -
b11100010100000000010 1
#161000
0.
#162000
1"
13
b0 )
b0 :
b0 W
b0 _
0Y
b1000000000 a
b0 b
b1000 c
1.
#163000
0.
#164000
1$
0"
16
03
1'
b10 !
b10 2
b10 T
b10 ^
b1 *
b1 ;
b1 X
b1 `
b10 )
b10 :
b10 W
b10 _
b1000101001100 a
b1 b
b0 c
1.
#165000
0.
#166000
0$
06
0'
b1001100 a
b111 b
b1 c
1.
#167000
0.
#168000
b0 !
b0 2
b0 T
b0 ^
b0 *
b0 ;
b0 X
b0 `
b1 )
b1 :
b1 W
b1 _
1Y
b11 a
b1000 b
b111 c
1.
#169000
0.
#170000
1"
13
b0 )
b0 :
b0 W
b0 _
0Y
b1000000000 a
b0 b
b1000 c
1.
#171000
0.
#172000
1$
0"
16
03
1'
b10 !
b10 2
b10 T
b10 ^
b1 *
b1 ;
b1 X
b1 `
b10 )
b10 :
b10 W
b10 _
b1000101001100 a
b1 b
b0 c
1.
#173000
0.
#174000
0$
06
0'
b1001100 a
b111 b
b1 c
1.
#175000
0.
#176000
b0 !
b0 2
b0 T
b0 ^
b0 *
b0 ;
b0 X
b0 `
b1 )
b1 :
b1 W
b1 _
b10 a
b10 c
1.
b101 b
b1 &
b1 8
b1 Q
b10 #
b10 4
b10 U
b1 R
b1 ]
b11000 P
b11000 \
b11100101100000000010 -
b11100101100000000010 1
#177000
0.
#178000
1%
17
1(
b0 )
b0 :
b0 W
b0 _
b10010000000 a
b0 b
b101 c
1.
#179000
0.
#180000
1$
0%
16
07
1'
0(
b10 !
b10 2
b10 T
b10 ^
b1 *
b1 ;
b1 X
b1 `
b10 )
b10 :
b10 W
b10 _
b1000101001100 a
b1 b
b0 c
1.
#181000
0.
#182000
0$
06
0'
b1001100 a
b10 b
b1 c
1.
#183000
0.
#184000
b0 !
b0 2
b0 T
b0 ^
b0 *
b0 ;
b0 X
b0 `
b1 )
b1 :
b1 W
b1 _
b10 a
b101 b
b10 c
1.
