arm_control.vcd
$date
	Sat Nov  5 11:04:20 2022
$end
$version
	Icarus Verilog
$end
$timescale
	1ps
$end
$scope module controller_tb $end
$var wire 2 ! ResultSrc [1:0] $end
$var wire 1 " RegWrite $end
$var wire 2 # RegSrc [1:0] $end
$var wire 1 $ PCWrite $end
$var wire 1 % MemWrite $end
$var wire 2 & ImmSrc [1:0] $end
$var wire 1 ' IRWrite $end
$var wire 1 ( AdrSrc $end
$var wire 2 ) ALUSrcB [1:0] $end
$var wire 2 * ALUSrcA [1:0] $end
$var wire 2 + ALUControl [1:0] $end
$var reg 4 , ALUFlags [3:0] $end
$var reg 20 - Instr [31:12] $end
$var reg 1 . clk $end
$var reg 1 / reset $end
$scope module dut $end
$var wire 4 0 ALUFlags [3:0] $end
$var wire 20 1 Instr [31:12] $end
$var wire 1 . clk $end
$var wire 1 / reset $end
$var wire 2 2 ResultSrc [1:0] $end
$var wire 1 " RegWrite $end
$var wire 1 3 RegW $end
$var wire 2 4 RegSrc [1:0] $end
$var wire 1 $ PCWrite $end
$var wire 1 5 PCS $end
$var wire 1 6 NextPC $end
$var wire 1 % MemWrite $end
$var wire 1 7 MemW $end
$var wire 2 8 ImmSrc [1:0] $end
$var wire 1 ' IRWrite $end
$var wire 2 9 FlagW [1:0] $end
$var wire 1 ( AdrSrc $end
$var wire 2 : ALUSrcB [1:0] $end
$var wire 2 ; ALUSrcA [1:0] $end
$var wire 2 < ALUControl [1:0] $end
$scope module cl $end
$var wire 4 = ALUFlags [3:0] $end
$var wire 4 > Cond [3:0] $end
$var wire 2 ? FlagWriteCond [1:0] $end
$var wire 1 % MemWrite $end
$var wire 1 $ PCWrite $end
$var wire 1 " RegWrite $end
$var wire 1 . clk $end
$var wire 1 / reset $end
$var wire 1 3 RegW $end
$var wire 1 5 PCS $end
$var wire 1 6 NextPC $end
$var wire 1 7 MemW $end
$var wire 4 @ Flags [3:0] $end
$var wire 2 A FlagW [1:0] $end
$var wire 1 B CondExP $end
$var wire 1 C CondEx $end
$scope module cc $end
$var wire 4 D Cond [3:0] $end
$var wire 4 E Flags [3:0] $end
$var wire 1 F ge $end
$var wire 1 G zero $end
$var wire 1 H overflow $end
$var wire 1 I neg $end
$var wire 1 J carry $end
$var reg 1 C CondEx $end
$upscope $end
$scope module condexreg $end
$var wire 1 . clk $end
$var wire 1 C d $end
$var wire 1 / reset $end
$var reg 1 B q $end
$upscope $end
$scope module flagwritereg0 $end
$var wire 1 . clk $end
$var wire 2 K d [1:0] $end
$var wire 1 L en $end
$var wire 1 / reset $end
$var reg 2 M q [1:0] $end
$upscope $end
$scope module flagwritereg1 $end
$var wire 1 . clk $end
$var wire 2 N d [1:0] $end
$var wire 1 O en $end
$var wire 1 / reset $end
$var reg 2 P q [1:0] $end
$upscope $end
$upscope $end
$scope module dec $end
$var wire 6 Q Funct [5:0] $end
$var wire 2 R ImmSrc [1:0] $end
$var wire 2 S Op [1:0] $end
$var wire 1 5 PCS $end
$var wire 4 T Rd [3:0] $end
$var wire 1 . clk $end
$var wire 1 / reset $end
$var wire 2 U ResultSrc [1:0] $end
$var wire 1 3 RegW $end
$var wire 2 V RegSrc [1:0] $end
$var wire 1 6 NextPC $end
$var wire 1 7 MemW $end
$var wire 1 ' IRWrite $end
$var wire 1 W Branch $end
$var wire 1 ( AdrSrc $end
$var wire 2 X ALUSrcB [1:0] $end
$var wire 2 Y ALUSrcA [1:0] $end
$var wire 1 Z ALUOp $end
$var reg 2 [ ALUControl [1:0] $end
$var reg 2 \ FlagW [1:0] $end
$scope module fsm $end
$var wire 6 ] Funct [5:0] $end
$var wire 2 ^ Op [1:0] $end
$var wire 1 . clk $end
$var wire 1 / reset $end
$var wire 2 _ ResultSrc [1:0] $end
$var wire 1 3 RegW $end
$var wire 1 6 NextPC $end
$var wire 1 7 MemW $end
$var wire 1 ' IRWrite $end
$var wire 1 W Branch $end
$var wire 1 ( AdrSrc $end
$var wire 2 ` ALUSrcB [1:0] $end
$var wire 2 a ALUSrcA [1:0] $end
$var wire 1 Z ALUOp $end
$var reg 13 b controls [12:0] $end
$var reg 4 c nextstate [3:0] $end
$var reg 4 d state [3:0] $end
$upscope $end
$upscope $end
$upscope $end
$upscope $end
$enddefinitions $end
#0
$dumpvars
b0 d
b1 c
b1000101001100 b
b1 a
b10 `
b10 _
b0 ^
b100 ]
b0 \
b0 [
0Z
b1 Y
b10 X
0W
b0 V
b10 U
b0 T
b0 S
b0 R
b100 Q
b0 P
0O
b0 N
b0 M
0L
b0 K
0J
0I
0H
0G
1F
b0 E
b1110 D
1C
0B
b0 A
b0 @
b0 ?
b1110 >
b0 =
b0 <
b1 ;
b10 :
b0 9
b0 8
07
16
05
b0 4
03
b10 2
b11100000010011110000 1
b0 0
1/
1.
b11100000010011110000 -
b0 ,
b0 +
b1 *
b10 )
0(
1'
b0 &
0%
1$
b0 #
0"
b10 !
$end
#1000
0.
0/
#2000
0$
06
0'
b1001100 b
b110 c
1B
b1 d
1.
#3000
0.
#4000
b1 +
b1 <
b1 [
b0 !
b0 2
b0 U
b0 _
b0 *
b0 ;
b0 Y
b0 a
b0 )
b0 :
b0 X
b0 `
1Z
b1 b
b1000 c
b110 d
1.
#5000
0.
#6000
b0 +
b0 <
b0 [
1"
13
0Z
b1000000000 b
b0 c
b1000 d
1.
#7000
0.
#8000
1$
0"
16
03
1'
b10 !
b10 2
b10 U
b10 _
b1 *
b1 ;
b1 Y
b1 a
b10 )
b10 :
b10 X
b10 `
b1000101001100 b
b1 c
b0 d
1.
b101000 Q
b101000 ]
b10 T
b11100010100000000010 -
b11100010100000000010 1
#9000
0.
#10000
0$
06
0'
b1001100 b
b111 c
b1 d
1.
#11000
0.
#12000
b0 !
b0 2
b0 U
b0 _
b0 *
b0 ;
b0 Y
b0 a
b1 )
b1 :
b1 X
b1 `
1Z
b11 b
b1000 c
b111 d
1.
#13000
0.
#14000
1"
13
b0 )
b0 :
b0 X
b0 `
0Z
b1000000000 b
b0 c
b1000 d
1.
#15000
0.
#16000
1$
0"
16
03
1'
b10 !
b10 2
b10 U
b10 _
b1 *
b1 ;
b1 Y
b1 a
b10 )
b10 :
b10 X
b10 `
b1000101001100 b
b1 c
b0 d
1.
b11 T
b11100010100000000011 -
b11100010100000000011 1
#17000
0.
#18000
0$
06
0'
b1001100 b
b111 c
b1 d
1.
#19000
0.
#20000
b0 !
b0 2
b0 U
b0 _
b0 *
b0 ;
b0 Y
b0 a
b1 )
b1 :
b1 X
b1 `
1Z
b11 b
b1000 c
b111 d
1.
#21000
0.
#22000
1"
13
b0 )
b0 :
b0 X
b0 `
0Z
b1000000000 b
b0 c
b1000 d
1.
#23000
0.
#24000
1$
0"
16
03
1'
b10 !
b10 2
b10 U
b10 _
b1 *
b1 ;
b1 Y
b1 a
b10 )
b10 :
b10 X
b10 `
b1000101001100 b
b1 c
b0 d
1.
b100100 Q
b100100 ]
b111 T
b11100010010000110111 -
b11100010010000110111 1
#25000
0.
#26000
0$
06
0'
b1001100 b
b111 c
b1 d
1.
#27000
0.
#28000
b1 +
b1 <
b1 [
b0 !
b0 2
b0 U
b0 _
b0 *
b0 ;
b0 Y
b0 a
b1 )
b1 :
b1 X
b1 `
1Z
b11 b
b1000 c
b111 d
1.
#29000
0.
#30000
b0 +
b0 <
b0 [
1"
13
b0 )
b0 :
b0 X
b0 `
0Z
b1000000000 b
b0 c
b1000 d
1.
#31000
0.
#32000
1$
0"
16
03
1'
b10 !
b10 2
b10 U
b10 _
b1 *
b1 ;
b1 Y
b1 a
b10 )
b10 :
b10 X
b10 `
b1000101001100 b
b1 c
b0 d
1.
b11000 Q
b11000 ]
b100 T
b11100001100001110100 -
b11100001100001110100 1
#33000
0.
#34000
0$
06
0'
b1001100 b
b110 c
b1 d
1.
#35000
0.
#36000
b11 +
b11 <
b11 [
b0 !
b0 2
b0 U
b0 _
b0 *
b0 ;
b0 Y
b0 a
b0 )
b0 :
b0 X
b0 `
1Z
b1 b
b1000 c
b110 d
1.
#37000
0.
#38000
b0 +
b0 <
b0 [
1"
13
0Z
b1000000000 b
b0 c
b1000 d
1.
#39000
0.
#40000
1$
0"
16
03
1'
b10 !
b10 2
b10 U
b10 _
b1 *
b1 ;
b1 Y
b1 a
b10 )
b10 :
b10 X
b10 `
b1000101001100 b
b1 c
b0 d
1.
b0 Q
b0 ]
b101 T
b11100000000000110101 -
b11100000000000110101 1
#41000
0.
#42000
0$
06
0'
b1001100 b
b110 c
b1 d
1.
#43000
0.
#44000
b10 +
b10 <
b10 [
b0 !
b0 2
b0 U
b0 _
b0 *
b0 ;
b0 Y
b0 a
b0 )
b0 :
b0 X
b0 `
1Z
b1 b
b1000 c
b110 d
1.
#45000
0.
#46000
b0 +
b0 <
b0 [
1"
13
0Z
b1000000000 b
b0 c
b1000 d
1.
#47000
0.
#48000
1$
0"
16
03
1'
b10 !
b10 2
b10 U
b10 _
b1 *
b1 ;
b1 Y
b1 a
b10 )
b10 :
b10 X
b10 `
b1000101001100 b
b1 c
b0 d
1.
b1000 Q
b1000 ]
b11100000100001010101 -
b11100000100001010101 1
#49000
0.
#50000
0$
06
0'
b1001100 b
b110 c
b1 d
1.
#51000
0.
#52000
b0 !
b0 2
b0 U
b0 _
b0 *
b0 ;
b0 Y
b0 a
b0 )
b0 :
b0 X
b0 `
1Z
b1 b
b1000 c
b110 d
1.
#53000
0.
#54000
1"
13
0Z
b1000000000 b
b0 c
b1000 d
1.
#55000
0.
#56000
1$
0"
16
03
1'
b10 !
b10 2
b10 U
b10 _
b1 *
b1 ;
b1 Y
b1 a
b10 )
b10 :
b10 X
b10 `
b1000101001100 b
b1 c
b0 d
1.
b10 N
b101 Q
b101 ]
b1000 T
b10 ,
b10 0
b10 =
b11100000010101011000 -
b11100000010101011000 1
#57000
0.
#58000
0$
06
0'
b1001100 b
b110 c
b1 d
1.
#59000
0.
#60000
1L
1O
b11 ?
b11 9
b11 A
b11 \
b1 +
b1 <
b1 [
b0 !
b0 2
b0 U
b0 _
b0 *
b0 ;
b0 Y
b0 a
b0 )
b0 :
b0 X
b0 `
1Z
b1 b
b1000 c
b110 d
1.
#61000
0.
#62000
b0 +
b0 <
b0 [
0L
0O
b0 ?
1"
b0 9
b0 A
b0 \
13
0Z
1J
b1000000000 b
b0 c
b10 @
b10 E
b10 P
b1000 d
1.
#63000
0.
#64000
1$
16
03
1'
b10 !
b10 2
b10 U
b10 _
b1 *
b1 ;
b1 Y
b1 a
b10 )
b10 :
b10 X
b10 `
b1000101001100 b
b1 c
0"
b0 d
0B
1.
0C
b10 &
b10 8
b10 R
b1 #
b1 4
b1 V
b10 S
b10 ^
b100000 Q
b100000 ]
b0 T
b0 >
b0 D
b1010000000000000 -
b1010000000000000 1
#65000
0.
#66000
0$
06
0'
b1001100 b
b1001 c
b1 d
1.
#67000
0.
#68000
15
1W
b10 *
b10 ;
b10 Y
b10 a
b1 )
b1 :
b1 X
b1 `
b100001010010 b
b0 c
b1001 d
1.
#69000
0.
#70000
05
1$
16
0W
1'
b1 *
b1 ;
b1 Y
b1 a
b10 )
b10 :
b10 X
b10 `
b1000101001100 b
b1 c
1B
b0 d
1.
1C
b0 &
b0 8
b0 R
b0 #
b0 4
b0 V
b0 S
b0 ^
b101 Q
b101 ]
b1000 T
b1110 >
b1110 D
b11100000010100111000 -
b11100000010100111000 1
#71000
0.
#72000
0$
06
0'
b1001100 b
b110 c
b1 d
1.
#73000
0.
#74000
1L
1O
b11 ?
b11 9
b11 A
b11 \
b1 +
b1 <
b1 [
b0 !
b0 2
b0 U
b0 _
b0 *
b0 ;
b0 Y
b0 a
b0 )
b0 :
b0 X
b0 `
1Z
b1 b
b1000 c
b110 d
1.
#75000
0.
#76000
b0 +
b0 <
b0 [
0L
0O
b0 ?
1"
b0 9
b0 A
b0 \
13
0Z
b1000000000 b
b0 c
b1000 d
1.
#77000
0.
#78000
1$
0"
16
03
1'
b10 !
b10 2
b10 U
b10 _
b1 *
b1 ;
b1 Y
b1 a
b10 )
b10 :
b10 X
b10 `
b1000101001100 b
b1 c
b0 d
1.
b10 K
b0 N
b10 &
b10 8
b10 R
b1 #
b1 4
b1 V
b10 S
b10 ^
b100000 Q
b100000 ]
b0 T
b1010 >
b1010 D
b1000 ,
b1000 0
b1000 =
b10101010000000000000 -
b10101010000000000000 1
#79000
0.
#80000
0$
06
0'
b1001100 b
b1001 c
b1 d
1.
#81000
0.
#82000
1$
15
1W
b10 *
b10 ;
b10 Y
b10 a
b1 )
b1 :
b1 X
b1 `
b100001010010 b
b0 c
b1001 d
1.
#83000
0.
#84000
05
16
0W
1'
b1 *
b1 ;
b1 Y
b1 a
b10 )
b10 :
b10 X
b10 `
b1000101001100 b
b1 c
b0 d
1.
b0 &
b0 8
b0 R
b0 #
b0 4
b0 V
b0 S
b0 ^
b101000 Q
b101000 ]
b101 T
b1110 >
b1110 D
b11100010100000000101 -
b11100010100000000101 1
#85000
0.
#86000
0$
06
0'
b1001100 b
b111 c
b1 d
1.
#87000
0.
#88000
b0 !
b0 2
b0 U
b0 _
b0 *
b0 ;
b0 Y
b0 a
b1 )
b1 :
b1 X
b1 `
1Z
b11 b
b1000 c
b111 d
1.
#89000
0.
#90000
1"
13
b0 )
b0 :
b0 X
b0 `
0Z
b1000000000 b
b0 c
b1000 d
1.
#91000
0.
#92000
1$
0"
16
03
1'
b10 !
b10 2
b10 U
b10 _
b1 *
b1 ;
b1 Y
b1 a
b10 )
b10 :
b10 X
b10 `
b1000101001100 b
b1 c
b0 d
1.
b101 Q
b101 ]
b1000 T
b11100000010101111000 -
b11100000010101111000 1
#93000
0.
#94000
0$
06
0'
b1001100 b
b110 c
b1 d
1.
#95000
0.
#96000
1L
1O
b11 ?
b11 9
b11 A
b11 \
b1 +
b1 <
b1 [
b0 !
b0 2
b0 U
b0 _
b0 *
b0 ;
b0 Y
b0 a
b0 )
b0 :
b0 X
b0 `
1Z
b1 b
b1000 c
b110 d
1.
#97000
0.
#98000
b0 +
b0 <
b0 [
0L
0O
b0 ?
1"
b0 9
b0 A
b0 \
0F
13
0Z
0J
1I
b1000000000 b
b0 c
b0 P
b1000 @
b1000 E
b10 M
b1000 d
1.
#99000
0.
#100000
1$
0"
16
03
1'
b10 !
b10 2
b10 U
b10 _
b1 *
b1 ;
b1 Y
b1 a
b10 )
b10 :
b10 X
b10 `
b1000101001100 b
b1 c
b0 d
1.
b101000 Q
b101000 ]
b111 T
b1011 >
b1011 D
b10110010100001010111 -
b10110010100001010111 1
#101000
0.
#102000
0$
06
0'
b1001100 b
b111 c
b1 d
1.
#103000
0.
#104000
b0 !
b0 2
b0 U
b0 _
b0 *
b0 ;
b0 Y
b0 a
b1 )
b1 :
b1 X
b1 `
1Z
b11 b
b1000 c
b111 d
1.
#105000
0.
#106000
1"
13
b0 )
b0 :
b0 X
b0 `
0Z
b1000000000 b
b0 c
b1000 d
1.
#107000
0.
#108000
1$
0"
16
03
1'
b10 !
b10 2
b10 U
b10 _
b1 *
b1 ;
b1 Y
b1 a
b10 )
b10 :
b10 X
b10 `
b1000101001100 b
b1 c
b0 d
1.
b100 Q
b100 ]
b1110 >
b1110 D
b11100000010001110111 -
b11100000010001110111 1
#109000
0.
#110000
0$
06
0'
b1001100 b
b110 c
b1 d
1.
#111000
0.
#112000
b1 +
b1 <
b1 [
b0 !
b0 2
b0 U
b0 _
b0 *
b0 ;
b0 Y
b0 a
b0 )
b0 :
b0 X
b0 `
1Z
b1 b
b1000 c
b110 d
1.
#113000
0.
#114000
b0 +
b0 <
b0 [
1"
13
0Z
b1000000000 b
b0 c
b1000 d
1.
#115000
0.
#116000
1$
0"
16
03
1'
b10 !
b10 2
b10 U
b10 _
b1 *
b1 ;
b1 Y
b1 a
b10 )
b10 :
b10 X
b10 `
b1000101001100 b
b1 c
b0 d
1.
b1 &
b1 8
b1 R
b10 #
b10 4
b10 V
b1 S
b1 ^
b11000 Q
b11000 ]
b11100101100000110111 -
b11100101100000110111 1
#117000
0.
#118000
0$
06
0'
b1001100 b
b10 c
b1 d
1.
#119000
0.
#120000
b0 !
b0 2
b0 U
b0 _
b0 *
b0 ;
b0 Y
b0 a
b1 )
b1 :
b1 X
b1 `
b10 b
b101 c
b10 d
1.
#121000
0.
#122000
1%
17
1(
b0 )
b0 :
b0 X
b0 `
b10010000000 b
b0 c
b101 d
1.
#123000
0.
#124000
1$
0%
16
07
1'
0(
b10 !
b10 2
b10 U
b10 _
b1 *
b1 ;
b1 Y
b1 a
b10 )
b10 :
b10 X
b10 `
b1000101001100 b
b1 c
b0 d
1.
b11001 Q
b11001 ]
b10 T
b11100101100100000010 -
b11100101100100000010 1
#125000
0.
#126000
0$
06
0'
b1001100 b
b10 c
b1 d
1.
#127000
0.
#128000
b0 !
b0 2
b0 U
b0 _
b0 *
b0 ;
b0 Y
b0 a
b1 )
b1 :
b1 X
b1 `
b10 b
b11 c
b10 d
1.
#129000
0.
#130000
1(
b0 )
b0 :
b0 X
b0 `
b10000000 b
b100 c
b11 d
1.
#131000
0.
#132000
1"
13
0(
b1 !
b1 2
b1 U
b1 _
b1000100000 b
b0 c
b100 d
1.
#133000
0.
#134000
0"
16
03
1'
b10 !
b10 2
b10 U
b10 _
b1 *
b1 ;
b1 Y
b1 a
b10 )
b10 :
b10 X
b10 `
b1000101001100 b
b1 c
b0 d
1.
1$
05
b0 &
b0 8
b0 R
b0 #
b0 4
b0 V
b0 S
b0 ^
b1000 Q
b1000 ]
b1111 T
b11100000100011111111 -
b11100000100011111111 1
#135000
0.
#136000
0$
06
0'
b1001100 b
b110 c
b1 d
1.
#137000
0.
#138000
b0 !
b0 2
b0 U
b0 _
b0 *
b0 ;
b0 Y
b0 a
b0 )
b0 :
b0 X
b0 `
1Z
b1 b
b1000 c
b110 d
1.
#139000
0.
#140000
1$
15
1"
13
0Z
b1000000000 b
b0 c
b1000 d
1.
#141000
0.
#142000
0"
16
03
1'
b10 !
b10 2
b10 U
b10 _
b1 *
b1 ;
b1 Y
b1 a
b10 )
b10 :
b10 X
b10 `
b1000101001100 b
b1 c
b0 d
1.
1$
05
b101000 Q
b101000 ]
b10 T
b11100010100000000010 -
b11100010100000000010 1
#143000
0.
#144000
0$
06
0'
b1001100 b
b111 c
b1 d
1.
#145000
0.
#146000
b0 !
b0 2
b0 U
b0 _
b0 *
b0 ;
b0 Y
b0 a
b1 )
b1 :
b1 X
b1 `
1Z
b11 b
b1000 c
b111 d
1.
#147000
0.
#148000
1"
13
b0 )
b0 :
b0 X
b0 `
0Z
b1000000000 b
b0 c
b1000 d
1.
#149000
0.
#150000
1$
0"
16
03
1'
b10 !
b10 2
b10 U
b10 _
b1 *
b1 ;
b1 Y
b1 a
b10 )
b10 :
b10 X
b10 `
b1000101001100 b
b1 c
b0 d
1.
b10 &
b10 8
b10 R
b1 #
b1 4
b1 V
b10 S
b10 ^
b100000 Q
b100000 ]
b0 T
b11101010000000000000 -
b11101010000000000000 1
#151000
0.
#152000
0$
06
0'
b1001100 b
b1001 c
b1 d
1.
#153000
0.
#154000
1$
15
1W
b10 *
b10 ;
b10 Y
b10 a
b1 )
b1 :
b1 X
b1 `
b100001010010 b
b0 c
b1001 d
1.
#155000
0.
#156000
05
16
0W
1'
b1 *
b1 ;
b1 Y
b1 a
b10 )
b10 :
b10 X
b10 `
b1000101001100 b
b1 c
b0 d
1.
b0 &
b0 8
b0 R
b0 #
b0 4
b0 V
b0 S
b0 ^
b101000 Q
b101000 ]
b10 T
b11100010100000000010 -
b11100010100000000010 1
#157000
0.
#158000
0$
06
0'
b1001100 b
b111 c
b1 d
1.
#159000
0.
#160000
b0 !
b0 2
b0 U
b0 _
b0 *
b0 ;
b0 Y
b0 a
b1 )
b1 :
b1 X
b1 `
1Z
b11 b
b1000 c
b111 d
1.
#161000
0.
#162000
1"
13
b0 )
b0 :
b0 X
b0 `
0Z
b1000000000 b
b0 c
b1000 d
1.
#163000
0.
#164000
1$
0"
16
03
1'
b10 !
b10 2
b10 U
b10 _
b1 *
b1 ;
b1 Y
b1 a
b10 )
b10 :
b10 X
b10 `
b1000101001100 b
b1 c
b0 d
1.
#165000
0.
#166000
0$
06
0'
b1001100 b
b111 c
b1 d
1.
#167000
0.
#168000
b0 !
b0 2
b0 U
b0 _
b0 *
b0 ;
b0 Y
b0 a
b1 )
b1 :
b1 X
b1 `
1Z
b11 b
b1000 c
b111 d
1.
#169000
0.
#170000
1"
13
b0 )
b0 :
b0 X
b0 `
0Z
b1000000000 b
b0 c
b1000 d
1.
#171000
0.
#172000
1$
0"
16
03
1'
b10 !
b10 2
b10 U
b10 _
b1 *
b1 ;
b1 Y
b1 a
b10 )
b10 :
b10 X
b10 `
b1000101001100 b
b1 c
b0 d
1.
b1 &
b1 8
b1 R
b10 #
b10 4
b10 V
b1 S
b1 ^
b11000 Q
b11000 ]
b11100101100000000010 -
b11100101100000000010 1
#173000
0.
#174000
0$
06
0'
b1001100 b
b10 c
b1 d
1.
#175000
0.
#176000
b0 !
b0 2
b0 U
b0 _
b0 *
b0 ;
b0 Y
b0 a
b1 )
b1 :
b1 X
b1 `
b10 b
b101 c
b10 d
1.
#177000
0.
#178000
1%
17
1(
b0 )
b0 :
b0 X
b0 `
b10010000000 b
b0 c
b101 d
1.
#179000
0.
#180000
1$
0%
16
07
1'
0(
b10 !
b10 2
b10 U
b10 _
b1 *
b1 ;
b1 Y
b1 a
b10 )
b10 :
b10 X
b10 `
b1000101001100 b
b1 c
b0 d
1.
