multi_tb.vcd
$date
	Tue Nov  1 19:30:43 2022
$end
$version
	Icarus Verilog
$end
$timescale
	1s
$end
$scope module multi_tb $end
$var wire 32 ! WriteData [31:0] $end
$var wire 1 " MemWrite $end
$var wire 32 # Adr [31:0] $end
$var reg 1 $ clk $end
$var reg 1 % reset $end
$scope module dut $end
$var wire 1 $ clk $end
$var wire 1 % reset $end
$var wire 32 & WriteData [31:0] $end
$var wire 32 ' ReadData [31:0] $end
$var wire 1 " MemWrite $end
$var wire 32 ( Adr [31:0] $end
$scope module arm $end
$var wire 1 $ clk $end
$var wire 1 % reset $end
$var wire 32 ) WriteData [31:0] $end
$var wire 2 * ResultSrc [1:0] $end
$var wire 1 + RegWrite $end
$var wire 2 , RegSrc [1:0] $end
$var wire 32 - ReadData [31:0] $end
$var wire 1 . PCWrite $end
$var wire 1 " MemWrite $end
$var wire 32 / Instr [31:0] $end
$var wire 2 0 ImmSrc [1:0] $end
$var wire 1 1 IRWrite $end
$var wire 1 2 AdrSrc $end
$var wire 32 3 Adr [31:0] $end
$var wire 2 4 ALUSrcB [1:0] $end
$var wire 2 5 ALUSrcA [1:0] $end
$var wire 4 6 ALUFlags [3:0] $end
$var wire 2 7 ALUControl [1:0] $end
$scope module c $end
$var wire 20 8 Instr [31:12] $end
$var wire 1 $ clk $end
$var wire 1 % reset $end
$var wire 2 9 ResultSrc [1:0] $end
$var wire 1 + RegWrite $end
$var wire 1 : RegW $end
$var wire 2 ; RegSrc [1:0] $end
$var wire 1 . PCWrite $end
$var wire 1 < PCS $end
$var wire 1 = NextPC $end
$var wire 1 " MemWrite $end
$var wire 1 > MemW $end
$var wire 2 ? ImmSrc [1:0] $end
$var wire 1 1 IRWrite $end
$var wire 2 @ FlagW [1:0] $end
$var wire 1 2 AdrSrc $end
$var wire 2 A ALUSrcB [1:0] $end
$var wire 2 B ALUSrcA [1:0] $end
$var wire 4 C ALUFlags [3:0] $end
$var wire 2 D ALUControl [1:0] $end
$scope module cl $end
$var wire 4 E Cond [3:0] $end
$var wire 2 F FlagWriteCond [1:0] $end
$var wire 1 " MemWrite $end
$var wire 1 . PCWrite $end
$var wire 1 + RegWrite $end
$var wire 1 $ clk $end
$var wire 1 % reset $end
$var wire 1 : RegW $end
$var wire 1 < PCS $end
$var wire 1 = NextPC $end
$var wire 1 > MemW $end
$var wire 4 G Flags [3:0] $end
$var wire 2 H FlagW [1:0] $end
$var wire 1 I CondEx $end
$var wire 4 J ALUFlags [3:0] $end
$scope module cc $end
$var wire 4 K Cond [3:0] $end
$var wire 4 L Flags [3:0] $end
$var wire 1 M ge $end
$var wire 1 N zero $end
$var wire 1 O overflow $end
$var wire 1 P neg $end
$var wire 1 Q carry $end
$var reg 1 I CondEx $end
$upscope $end
$scope module flagwritereg0 $end
$var wire 1 $ clk $end
$var wire 2 R d [1:0] $end
$var wire 1 S en $end
$var wire 1 % reset $end
$var reg 2 T q [1:0] $end
$upscope $end
$scope module flagwritereg1 $end
$var wire 1 $ clk $end
$var wire 2 U d [1:0] $end
$var wire 1 V en $end
$var wire 1 % reset $end
$var reg 2 W q [1:0] $end
$upscope $end
$upscope $end
$scope module dec $end
$var wire 6 X Funct [5:0] $end
$var wire 2 Y ImmSrc [1:0] $end
$var wire 2 Z Op [1:0] $end
$var wire 1 < PCS $end
$var wire 4 [ Rd [3:0] $end
$var wire 1 $ clk $end
$var wire 1 % reset $end
$var wire 2 \ ResultSrc [1:0] $end
$var wire 1 : RegW $end
$var wire 2 ] RegSrc [1:0] $end
$var wire 1 = NextPC $end
$var wire 1 > MemW $end
$var wire 1 1 IRWrite $end
$var wire 1 ^ Branch $end
$var wire 1 2 AdrSrc $end
$var wire 2 _ ALUSrcB [1:0] $end
$var wire 2 ` ALUSrcA [1:0] $end
$var wire 1 a ALUOp $end
$var reg 2 b ALUControl [1:0] $end
$var reg 2 c FlagW [1:0] $end
$scope module fsm $end
$var wire 6 d Funct [5:0] $end
$var wire 2 e Op [1:0] $end
$var wire 1 $ clk $end
$var wire 1 % reset $end
$var wire 2 f ResultSrc [1:0] $end
$var wire 1 : RegW $end
$var wire 1 = NextPC $end
$var wire 1 > MemW $end
$var wire 1 1 IRWrite $end
$var wire 1 ^ Branch $end
$var wire 1 2 AdrSrc $end
$var wire 2 g ALUSrcB [1:0] $end
$var wire 2 h ALUSrcA [1:0] $end
$var wire 1 a ALUOp $end
$var reg 13 i controls [12:0] $end
$var reg 4 j nextstate [3:0] $end
$var reg 4 k state [3:0] $end
$upscope $end
$upscope $end
$upscope $end
$scope module dp $end
$var wire 2 l ALUControl [1:0] $end
$var wire 2 m ALUSrcA [1:0] $end
$var wire 2 n ALUSrcB [1:0] $end
$var wire 1 2 AdrSrc $end
$var wire 1 1 IRWrite $end
$var wire 2 o ImmSrc [1:0] $end
$var wire 32 p PCNext [31:0] $end
$var wire 1 . PCWrite $end
$var wire 2 q RegSrc [1:0] $end
$var wire 1 + RegWrite $end
$var wire 2 r ResultSrc [1:0] $end
$var wire 1 $ clk $end
$var wire 1 % reset $end
$var wire 32 s WriteData [31:0] $end
$var wire 32 t SrcB [31:0] $end
$var wire 32 u SrcA [31:0] $end
$var wire 32 v Result [31:0] $end
$var wire 32 w ReadData [31:0] $end
$var wire 32 x RD2 [31:0] $end
$var wire 32 y RD1 [31:0] $end
$var wire 4 z RA2 [3:0] $end
$var wire 4 { RA1 [3:0] $end
$var wire 32 | PC [31:0] $end
$var wire 32 } Instr [31:0] $end
$var wire 32 ~ ExtImm [31:0] $end
$var wire 32 !" Data [31:0] $end
$var wire 32 "" Adr [31:0] $end
$var wire 32 #" ALUResult [31:0] $end
$var wire 32 $" ALUOut [31:0] $end
$var wire 4 %" ALUFlags [3:0] $end
$var wire 32 &" A [31:0] $end
$scope module adrmux $end
$var wire 1 2 s $end
$var wire 32 '" y [31:0] $end
$var wire 32 (" d1 [31:0] $end
$var wire 32 )" d0 [31:0] $end
$upscope $end
$scope module alu $end
$var wire 2 *" ALUControl [1:0] $end
$var wire 1 +" carry $end
$var wire 1 ," overflow $end
$var wire 1 -" zero $end
$var wire 33 ." sum [32:0] $end
$var wire 1 /" negative $end
$var wire 32 0" condinvb [31:0] $end
$var wire 32 1" b [31:0] $end
$var wire 32 2" a [31:0] $end
$var wire 4 3" ALUFlags [3:0] $end
$var reg 32 4" Result [31:0] $end
$upscope $end
$scope module alureg $end
$var wire 1 $ clk $end
$var wire 32 5" d [31:0] $end
$var wire 1 % reset $end
$var reg 32 6" q [31:0] $end
$upscope $end
$scope module ext $end
$var wire 2 7" ImmSrc [1:0] $end
$var wire 24 8" Instr [23:0] $end
$var reg 32 9" ExtImm [31:0] $end
$upscope $end
$scope module irreg $end
$var wire 1 $ clk $end
$var wire 1 1 en $end
$var wire 1 % reset $end
$var wire 32 :" d [31:0] $end
$var reg 32 ;" q [31:0] $end
$upscope $end
$scope module pcreg $end
$var wire 1 $ clk $end
$var wire 32 <" d [31:0] $end
$var wire 1 . en $end
$var wire 1 % reset $end
$var reg 32 =" q [31:0] $end
$upscope $end
$scope module ra1mux $end
$var wire 4 >" d0 [3:0] $end
$var wire 4 ?" d1 [3:0] $end
$var wire 1 @" s $end
$var wire 4 A" y [3:0] $end
$upscope $end
$scope module ra2mux $end
$var wire 4 B" d0 [3:0] $end
$var wire 4 C" d1 [3:0] $end
$var wire 1 D" s $end
$var wire 4 E" y [3:0] $end
$upscope $end
$scope module rd1reg $end
$var wire 1 $ clk $end
$var wire 1 % reset $end
$var wire 32 F" d [31:0] $end
$var reg 32 G" q [31:0] $end
$upscope $end
$scope module rd2reg $end
$var wire 1 $ clk $end
$var wire 1 % reset $end
$var wire 32 H" d [31:0] $end
$var reg 32 I" q [31:0] $end
$upscope $end
$scope module rdreg $end
$var wire 1 $ clk $end
$var wire 1 % reset $end
$var wire 32 J" d [31:0] $end
$var reg 32 K" q [31:0] $end
$upscope $end
$scope module resultmux $end
$var wire 32 L" d0 [31:0] $end
$var wire 32 M" d1 [31:0] $end
$var wire 32 N" d2 [31:0] $end
$var wire 2 O" s [1:0] $end
$var wire 32 P" y [31:0] $end
$upscope $end
$scope module rf $end
$var wire 1 $ clk $end
$var wire 32 Q" r15 [31:0] $end
$var wire 4 R" ra1 [3:0] $end
$var wire 4 S" ra2 [3:0] $end
$var wire 4 T" wa3 [3:0] $end
$var wire 32 U" wd3 [31:0] $end
$var wire 1 + we3 $end
$var wire 32 V" rd2 [31:0] $end
$var wire 32 W" rd1 [31:0] $end
$upscope $end
$scope module srcamux $end
$var wire 32 X" d0 [31:0] $end
$var wire 32 Y" d1 [31:0] $end
$var wire 32 Z" d2 [31:0] $end
$var wire 2 [" s [1:0] $end
$var wire 32 \" y [31:0] $end
$upscope $end
$scope module srcbmux $end
$var wire 32 ]" d0 [31:0] $end
$var wire 32 ^" d1 [31:0] $end
$var wire 32 _" d2 [31:0] $end
$var wire 2 `" s [1:0] $end
$var wire 32 a" y [31:0] $end
$upscope $end
$upscope $end
$upscope $end
$scope module mem $end
$var wire 32 b" a [31:0] $end
$var wire 1 $ clk $end
$var wire 32 c" rd [31:0] $end
$var wire 32 d" wd [31:0] $end
$var wire 1 " we $end
$upscope $end
$upscope $end
$upscope $end
$enddefinitions $end
#0
$dumpvars
b0 d"
b11100000010011110000000000001111 c"
b0 b"
b100 a"
b10 `"
b100 _"
b0 ^"
b0 ]"
b0 \"
b1 ["
b0 Z"
b0 Y"
b0 X"
bx W"
bx V"
b100 U"
b0 T"
b0 S"
b0 R"
b100 Q"
b100 P"
b10 O"
b100 N"
b0 M"
b0 L"
b0 K"
b11100000010011110000000000001111 J"
b0 I"
bx H"
b0 G"
bx F"
b0 E"
0D"
b0 C"
b0 B"
b0 A"
0@"
b1111 ?"
b0 >"
b0 ="
bz <"
b0 ;"
b0 :"
b0 9"
b0 8"
b0 7"
b0 6"
b100 5"
b100 4"
b0 3"
b0 2"
b100 1"
b100 0"
0/"
b100 ."
0-"
0,"
0+"
b0 *"
b0 )"
b100 ("
b0 '"
b0 &"
b0 %"
b0 $"
b100 #"
b0 ""
b0 !"
b0 ~
b0 }
b0 |
b0 {
b0 z
bx y
bx x
b11100000010011110000000000001111 w
b100 v
b0 u
b100 t
b0 s
b10 r
b0 q
bz p
b0 o
b10 n
b1 m
b0 l
b0 k
b1 j
b1000101001100 i
b1 h
b10 g
b10 f
b0 e
b0 d
b0 c
b0 b
0a
b1 `
b10 _
0^
b0 ]
b10 \
b0 [
b0 Z
b0 Y
b0 X
b0 W
0V
b0 U
b0 T
0S
b0 R
0Q
0P
0O
0N
1M
b0 L
b0 K
b0 J
0I
b0 H
b0 G
b0 F
b0 E
b0 D
b0 C
b1 B
b10 A
b0 @
b0 ?
0>
1=
0<
b0 ;
0:
b10 9
b0 8
b0 7
b0 6
b1 5
b10 4
b0 3
02
11
b0 0
b0 /
1.
b11100000010011110000000000001111 -
b0 ,
0+
b10 *
b0 )
b0 (
b11100000010011110000000000001111 '
b0 &
1%
1$
b0 #
0"
b0 !
$end
#5
0$
#10
bx U
x,"
x+"
x/"
bx R
bx v
bx ("
bx P"
bx Q"
bx U"
bx 6
bx C
bx J
bx %"
bx 3"
x-"
bx #"
bx 4"
bx 5"
bx N"
0.
bx ."
bz u
bz 2"
bz \"
bx '
bx -
bx w
bx J"
bx c"
0=
01
bz #
bz (
bz 3
bz ""
bz '"
bz b"
b1001100 i
b110 j
b100 $"
b100 6"
b100 L"
b100 Z"
bx !
bx &
bx )
bx s
bx I"
bx ]"
bx d"
bx &"
bx G"
bx X"
b11100000010011110000000000001111 !"
b11100000010011110000000000001111 K"
b11100000010011110000000000001111 M"
bz |
bz )"
bz ="
bz Y"
b1 k
1$
0%
#15
0$
#20
bx R
b0 U
0,"
bx u
bx 2"
bx \"
bx 0"
x/"
bx v
bx ("
bx P"
bx Q"
bx U"
bx00 6
bx00 C
bx00 J
bx00 %"
bx00 3"
0+"
bx t
bx 1"
bx a"
bx #"
bx 4"
bx 5"
bx N"
b10 7
b10 D
b10 b
b10 l
b10 *"
b0 5
b0 B
b0 `
b0 h
b0 m
b0 ["
b0 4
b0 A
b0 _
b0 g
b0 n
b0 `"
1a
b1000001 i
b1000 j
b110 k
bx !"
bx K"
bx M"
bx $"
bx 6"
bx L"
bx Z"
1$
#25
0$
#30
0/"
b1 R
b0 0"
b100 6
b100 C
b100 J
b100 %"
b100 3"
1-"
b0 #"
b0 4"
b0 5"
b0 N"
b0 t
b0 1"
b0 a"
1:
11
b0 *
b0 9
b0 \
b0 f
b0 r
b0 O"
b1 4
b1 A
b1 _
b1 g
b1 n
b1 `"
b1100000011 i
b0 j
b1000 k
1$
#35
0$
#40
bx U
x,"
x/"
x+"
b0 7
b0 D
b0 b
b0 l
b0 *"
bx R
bz u
bz 2"
bz \"
b100 0"
bx 6
bx C
bx J
bx %"
bx 3"
x-"
bx #"
bx 4"
bx 5"
bx N"
b100 t
b100 1"
b100 a"
1.
1=
0:
b10 *
b10 9
b10 \
b10 f
b10 r
b10 O"
b1 5
b1 B
b1 `
b1 h
b1 m
b1 ["
b10 4
b10 A
b10 _
b10 g
b10 n
b10 `"
0a
bx v
bx ("
bx P"
bx Q"
bx U"
b1000101001100 i
b1 j
b0 k
b0 $"
b0 6"
b0 L"
b0 Z"
1$
#45
0$
#50
0.
0=
01
b1001100 i
b110 j
bx $"
bx 6"
bx L"
bx Z"
b1 k
1$
#55
0$
#60
bx R
b0 U
0,"
bx u
bx 2"
bx \"
bx 0"
x/"
bx v
bx ("
bx P"
bx Q"
bx U"
bx00 6
bx00 C
bx00 J
bx00 %"
bx00 3"
0+"
bx t
bx 1"
bx a"
bx #"
bx 4"
bx 5"
bx N"
b10 7
b10 D
b10 b
b10 l
b10 *"
b0 5
b0 B
b0 `
b0 h
b0 m
b0 ["
b0 4
b0 A
b0 _
b0 g
b0 n
b0 `"
1a
b1000001 i
b1000 j
b110 k
1$
#65
0$
#70
0/"
b1 R
b0 0"
b100 6
b100 C
b100 J
b100 %"
b100 3"
1-"
b0 #"
b0 4"
b0 5"
b0 N"
b0 t
b0 1"
b0 a"
1:
11
b0 *
b0 9
b0 \
b0 f
b0 r
b0 O"
b1 4
b1 A
b1 _
b1 g
b1 n
b1 `"
b1100000011 i
b0 j
b1000 k
1$
#75
0$
#80
bx U
x,"
x/"
x+"
b0 7
b0 D
b0 b
b0 l
b0 *"
bx R
bz u
bz 2"
bz \"
b100 0"
bx 6
bx C
bx J
bx %"
bx 3"
x-"
bx #"
bx 4"
bx 5"
bx N"
b100 t
b100 1"
b100 a"
1.
1=
0:
b10 *
b10 9
b10 \
b10 f
b10 r
b10 O"
b1 5
b1 B
b1 `
b1 h
b1 m
b1 ["
b10 4
b10 A
b10 _
b10 g
b10 n
b10 `"
0a
bx v
bx ("
bx P"
bx Q"
bx U"
b1000101001100 i
b1 j
b0 k
b0 $"
b0 6"
b0 L"
b0 Z"
1$
#85
0$
#90
0.
0=
01
b1001100 i
b110 j
bx $"
bx 6"
bx L"
bx Z"
b1 k
1$
#95
0$
#100
bx R
b0 U
0,"
bx u
bx 2"
bx \"
bx 0"
x/"
bx v
bx ("
bx P"
bx Q"
bx U"
bx00 6
bx00 C
bx00 J
bx00 %"
bx00 3"
0+"
bx t
bx 1"
bx a"
bx #"
bx 4"
bx 5"
bx N"
b10 7
b10 D
b10 b
b10 l
b10 *"
b0 5
b0 B
b0 `
b0 h
b0 m
b0 ["
b0 4
b0 A
b0 _
b0 g
b0 n
b0 `"
1a
b1000001 i
b1000 j
b110 k
1$
#105
0$
#110
0/"
b1 R
b0 0"
b100 6
b100 C
b100 J
b100 %"
b100 3"
1-"
b0 #"
b0 4"
b0 5"
b0 N"
b0 t
b0 1"
b0 a"
1:
11
b0 *
b0 9
b0 \
b0 f
b0 r
b0 O"
b1 4
b1 A
b1 _
b1 g
b1 n
b1 `"
b1100000011 i
b0 j
b1000 k
1$
#115
0$
#120
bx U
x,"
x/"
x+"
b0 7
b0 D
b0 b
b0 l
b0 *"
bx R
bz u
bz 2"
bz \"
b100 0"
bx 6
bx C
bx J
bx %"
bx 3"
x-"
bx #"
bx 4"
bx 5"
bx N"
b100 t
b100 1"
b100 a"
1.
1=
0:
b10 *
b10 9
b10 \
b10 f
b10 r
b10 O"
b1 5
b1 B
b1 `
b1 h
b1 m
b1 ["
b10 4
b10 A
b10 _
b10 g
b10 n
b10 `"
0a
bx v
bx ("
bx P"
bx Q"
bx U"
b1000101001100 i
b1 j
b0 k
b0 $"
b0 6"
b0 L"
b0 Z"
1$
#125
0$
#130
0.
0=
01
b1001100 i
b110 j
bx $"
bx 6"
bx L"
bx Z"
b1 k
1$
#135
0$
#140
bx R
b0 U
0,"
bx u
bx 2"
bx \"
bx 0"
x/"
bx v
bx ("
bx P"
bx Q"
bx U"
bx00 6
bx00 C
bx00 J
bx00 %"
bx00 3"
0+"
bx t
bx 1"
bx a"
bx #"
bx 4"
bx 5"
bx N"
b10 7
b10 D
b10 b
b10 l
b10 *"
b0 5
b0 B
b0 `
b0 h
b0 m
b0 ["
b0 4
b0 A
b0 _
b0 g
b0 n
b0 `"
1a
b1000001 i
b1000 j
b110 k
1$
#145
0$
#150
0/"
b1 R
b0 0"
b100 6
b100 C
b100 J
b100 %"
b100 3"
1-"
b0 #"
b0 4"
b0 5"
b0 N"
b0 t
b0 1"
b0 a"
1:
11
b0 *
b0 9
b0 \
b0 f
b0 r
b0 O"
b1 4
b1 A
b1 _
b1 g
b1 n
b1 `"
b1100000011 i
b0 j
b1000 k
1$
#155
0$
#160
bx U
x,"
x/"
x+"
b0 7
b0 D
b0 b
b0 l
b0 *"
bx R
bz u
bz 2"
bz \"
b100 0"
bx 6
bx C
bx J
bx %"
bx 3"
x-"
bx #"
bx 4"
bx 5"
bx N"
b100 t
b100 1"
b100 a"
1.
1=
0:
b10 *
b10 9
b10 \
b10 f
b10 r
b10 O"
b1 5
b1 B
b1 `
b1 h
b1 m
b1 ["
b10 4
b10 A
b10 _
b10 g
b10 n
b10 `"
0a
bx v
bx ("
bx P"
bx Q"
bx U"
b1000101001100 i
b1 j
b0 k
b0 $"
b0 6"
b0 L"
b0 Z"
1$
#165
0$
#170
0.
0=
01
b1001100 i
b110 j
bx $"
bx 6"
bx L"
bx Z"
b1 k
1$
#175
0$
#180
bx R
b0 U
0,"
bx u
bx 2"
bx \"
bx 0"
x/"
bx v
bx ("
bx P"
bx Q"
bx U"
bx00 6
bx00 C
bx00 J
bx00 %"
bx00 3"
0+"
bx t
bx 1"
bx a"
bx #"
bx 4"
bx 5"
bx N"
b10 7
b10 D
b10 b
b10 l
b10 *"
b0 5
b0 B
b0 `
b0 h
b0 m
b0 ["
b0 4
b0 A
b0 _
b0 g
b0 n
b0 `"
1a
b1000001 i
b1000 j
b110 k
1$
#185
0$
#190
0/"
b1 R
b0 0"
b100 6
b100 C
b100 J
b100 %"
b100 3"
1-"
b0 #"
b0 4"
b0 5"
b0 N"
b0 t
b0 1"
b0 a"
1:
11
b0 *
b0 9
b0 \
b0 f
b0 r
b0 O"
b1 4
b1 A
b1 _
b1 g
b1 n
b1 `"
b1100000011 i
b0 j
b1000 k
1$
#195
0$
#200
bx U
x,"
x/"
x+"
b0 7
b0 D
b0 b
b0 l
b0 *"
bx R
bz u
bz 2"
bz \"
b100 0"
bx 6
bx C
bx J
bx %"
bx 3"
x-"
bx #"
bx 4"
bx 5"
bx N"
b100 t
b100 1"
b100 a"
1.
1=
0:
b10 *
b10 9
b10 \
b10 f
b10 r
b10 O"
b1 5
b1 B
b1 `
b1 h
b1 m
b1 ["
b10 4
b10 A
b10 _
b10 g
b10 n
b10 `"
0a
bx v
bx ("
bx P"
bx Q"
bx U"
b1000101001100 i
b1 j
b0 k
b0 $"
b0 6"
b0 L"
b0 Z"
1$
#205
0$
#210
0.
0=
01
b1001100 i
b110 j
bx $"
bx 6"
bx L"
bx Z"
b1 k
1$
#215
0$
#220
bx R
b0 U
0,"
bx u
bx 2"
bx \"
bx 0"
x/"
bx v
bx ("
bx P"
bx Q"
bx U"
bx00 6
bx00 C
bx00 J
bx00 %"
bx00 3"
0+"
bx t
bx 1"
bx a"
bx #"
bx 4"
bx 5"
bx N"
b10 7
b10 D
b10 b
b10 l
b10 *"
b0 5
b0 B
b0 `
b0 h
b0 m
b0 ["
b0 4
b0 A
b0 _
b0 g
b0 n
b0 `"
1a
b1000001 i
b1000 j
b110 k
1$
#225
0$
#230
0/"
b1 R
b0 0"
b100 6
b100 C
b100 J
b100 %"
b100 3"
1-"
b0 #"
b0 4"
b0 5"
b0 N"
b0 t
b0 1"
b0 a"
1:
11
b0 *
b0 9
b0 \
b0 f
b0 r
b0 O"
b1 4
b1 A
b1 _
b1 g
b1 n
b1 `"
b1100000011 i
b0 j
b1000 k
1$
#235
0$
#240
bx U
x,"
x/"
x+"
b0 7
b0 D
b0 b
b0 l
b0 *"
bx R
bz u
bz 2"
bz \"
b100 0"
bx 6
bx C
bx J
bx %"
bx 3"
x-"
bx #"
bx 4"
bx 5"
bx N"
b100 t
b100 1"
b100 a"
1.
1=
0:
b10 *
b10 9
b10 \
b10 f
b10 r
b10 O"
b1 5
b1 B
b1 `
b1 h
b1 m
b1 ["
b10 4
b10 A
b10 _
b10 g
b10 n
b10 `"
0a
bx v
bx ("
bx P"
bx Q"
bx U"
b1000101001100 i
b1 j
b0 k
b0 $"
b0 6"
b0 L"
b0 Z"
1$
#245
0$
#250
0.
0=
01
b1001100 i
b110 j
bx $"
bx 6"
bx L"
bx Z"
b1 k
1$
#255
0$
#260
bx R
b0 U
0,"
bx u
bx 2"
bx \"
bx 0"
x/"
bx v
bx ("
bx P"
bx Q"
bx U"
bx00 6
bx00 C
bx00 J
bx00 %"
bx00 3"
0+"
bx t
bx 1"
bx a"
bx #"
bx 4"
bx 5"
bx N"
b10 7
b10 D
b10 b
b10 l
b10 *"
b0 5
b0 B
b0 `
b0 h
b0 m
b0 ["
b0 4
b0 A
b0 _
b0 g
b0 n
b0 `"
1a
b1000001 i
b1000 j
b110 k
1$
#265
0$
#270
0/"
b1 R
b0 0"
b100 6
b100 C
b100 J
b100 %"
b100 3"
1-"
b0 #"
b0 4"
b0 5"
b0 N"
b0 t
b0 1"
b0 a"
1:
11
b0 *
b0 9
b0 \
b0 f
b0 r
b0 O"
b1 4
b1 A
b1 _
b1 g
b1 n
b1 `"
b1100000011 i
b0 j
b1000 k
1$
#275
0$
#280
bx U
x,"
x/"
x+"
b0 7
b0 D
b0 b
b0 l
b0 *"
bx R
bz u
bz 2"
bz \"
b100 0"
bx 6
bx C
bx J
bx %"
bx 3"
x-"
bx #"
bx 4"
bx 5"
bx N"
b100 t
b100 1"
b100 a"
1.
1=
0:
b10 *
b10 9
b10 \
b10 f
b10 r
b10 O"
b1 5
b1 B
b1 `
b1 h
b1 m
b1 ["
b10 4
b10 A
b10 _
b10 g
b10 n
b10 `"
0a
bx v
bx ("
bx P"
bx Q"
bx U"
b1000101001100 i
b1 j
b0 k
b0 $"
b0 6"
b0 L"
b0 Z"
1$
#285
0$
#290
0.
0=
01
b1001100 i
b110 j
bx $"
bx 6"
bx L"
bx Z"
b1 k
1$
#295
0$
#300
bx R
b0 U
0,"
bx u
bx 2"
bx \"
bx 0"
x/"
bx v
bx ("
bx P"
bx Q"
bx U"
bx00 6
bx00 C
bx00 J
bx00 %"
bx00 3"
0+"
bx t
bx 1"
bx a"
bx #"
bx 4"
bx 5"
bx N"
b10 7
b10 D
b10 b
b10 l
b10 *"
b0 5
b0 B
b0 `
b0 h
b0 m
b0 ["
b0 4
b0 A
b0 _
b0 g
b0 n
b0 `"
1a
b1000001 i
b1000 j
b110 k
1$
#305
0$
#310
0/"
b1 R
b0 0"
b100 6
b100 C
b100 J
b100 %"
b100 3"
1-"
b0 #"
b0 4"
b0 5"
b0 N"
b0 t
b0 1"
b0 a"
1:
11
b0 *
b0 9
b0 \
b0 f
b0 r
b0 O"
b1 4
b1 A
b1 _
b1 g
b1 n
b1 `"
b1100000011 i
b0 j
b1000 k
1$
#315
0$
#320
bx U
x,"
x/"
x+"
b0 7
b0 D
b0 b
b0 l
b0 *"
bx R
bz u
bz 2"
bz \"
b100 0"
bx 6
bx C
bx J
bx %"
bx 3"
x-"
bx #"
bx 4"
bx 5"
bx N"
b100 t
b100 1"
b100 a"
1.
1=
0:
b10 *
b10 9
b10 \
b10 f
b10 r
b10 O"
b1 5
b1 B
b1 `
b1 h
b1 m
b1 ["
b10 4
b10 A
b10 _
b10 g
b10 n
b10 `"
0a
bx v
bx ("
bx P"
bx Q"
bx U"
b1000101001100 i
b1 j
b0 k
b0 $"
b0 6"
b0 L"
b0 Z"
1$
#325
0$
#330
0.
0=
01
b1001100 i
b110 j
bx $"
bx 6"
bx L"
bx Z"
b1 k
1$
#335
0$
#340
bx R
b0 U
0,"
bx u
bx 2"
bx \"
bx 0"
x/"
bx v
bx ("
bx P"
bx Q"
bx U"
bx00 6
bx00 C
bx00 J
bx00 %"
bx00 3"
0+"
bx t
bx 1"
bx a"
bx #"
bx 4"
bx 5"
bx N"
b10 7
b10 D
b10 b
b10 l
b10 *"
b0 5
b0 B
b0 `
b0 h
b0 m
b0 ["
b0 4
b0 A
b0 _
b0 g
b0 n
b0 `"
1a
b1000001 i
b1000 j
b110 k
1$
#345
0$
#350
0/"
b1 R
b0 0"
b100 6
b100 C
b100 J
b100 %"
b100 3"
1-"
b0 #"
b0 4"
b0 5"
b0 N"
b0 t
b0 1"
b0 a"
1:
11
b0 *
b0 9
b0 \
b0 f
b0 r
b0 O"
b1 4
b1 A
b1 _
b1 g
b1 n
b1 `"
b1100000011 i
b0 j
b1000 k
1$
#355
0$
#360
bx U
x,"
x/"
x+"
b0 7
b0 D
b0 b
b0 l
b0 *"
bx R
bz u
bz 2"
bz \"
b100 0"
bx 6
bx C
bx J
bx %"
bx 3"
x-"
bx #"
bx 4"
bx 5"
bx N"
b100 t
b100 1"
b100 a"
1.
1=
0:
b10 *
b10 9
b10 \
b10 f
b10 r
b10 O"
b1 5
b1 B
b1 `
b1 h
b1 m
b1 ["
b10 4
b10 A
b10 _
b10 g
b10 n
b10 `"
0a
bx v
bx ("
bx P"
bx Q"
bx U"
b1000101001100 i
b1 j
b0 k
b0 $"
b0 6"
b0 L"
b0 Z"
1$
#365
0$
#370
0.
0=
01
b1001100 i
b110 j
bx $"
bx 6"
bx L"
bx Z"
b1 k
1$
#375
0$
#380
bx R
b0 U
0,"
bx u
bx 2"
bx \"
bx 0"
x/"
bx v
bx ("
bx P"
bx Q"
bx U"
bx00 6
bx00 C
bx00 J
bx00 %"
bx00 3"
0+"
bx t
bx 1"
bx a"
bx #"
bx 4"
bx 5"
bx N"
b10 7
b10 D
b10 b
b10 l
b10 *"
b0 5
b0 B
b0 `
b0 h
b0 m
b0 ["
b0 4
b0 A
b0 _
b0 g
b0 n
b0 `"
1a
b1000001 i
b1000 j
b110 k
1$
#385
0$
#390
0/"
b1 R
b0 0"
b100 6
b100 C
b100 J
b100 %"
b100 3"
1-"
b0 #"
b0 4"
b0 5"
b0 N"
b0 t
b0 1"
b0 a"
1:
11
b0 *
b0 9
b0 \
b0 f
b0 r
b0 O"
b1 4
b1 A
b1 _
b1 g
b1 n
b1 `"
b1100000011 i
b0 j
b1000 k
1$
#395
0$
#400
bx U
x,"
x/"
x+"
b0 7
b0 D
b0 b
b0 l
b0 *"
bx R
bz u
bz 2"
bz \"
b100 0"
bx 6
bx C
bx J
bx %"
bx 3"
x-"
bx #"
bx 4"
bx 5"
bx N"
b100 t
b100 1"
b100 a"
1.
1=
0:
b10 *
b10 9
b10 \
b10 f
b10 r
b10 O"
b1 5
b1 B
b1 `
b1 h
b1 m
b1 ["
b10 4
b10 A
b10 _
b10 g
b10 n
b10 `"
0a
bx v
bx ("
bx P"
bx Q"
bx U"
b1000101001100 i
b1 j
b0 k
b0 $"
b0 6"
b0 L"
b0 Z"
1$
#405
0$
#410
0.
0=
01
b1001100 i
b110 j
bx $"
bx 6"
bx L"
bx Z"
b1 k
1$
#415
0$
#420
bx R
b0 U
0,"
bx u
bx 2"
bx \"
bx 0"
x/"
bx v
bx ("
bx P"
bx Q"
bx U"
bx00 6
bx00 C
bx00 J
bx00 %"
bx00 3"
0+"
bx t
bx 1"
bx a"
bx #"
bx 4"
bx 5"
bx N"
b10 7
b10 D
b10 b
b10 l
b10 *"
b0 5
b0 B
b0 `
b0 h
b0 m
b0 ["
b0 4
b0 A
b0 _
b0 g
b0 n
b0 `"
1a
b1000001 i
b1000 j
b110 k
1$
#425
0$
#430
0/"
b1 R
b0 0"
b100 6
b100 C
b100 J
b100 %"
b100 3"
1-"
b0 #"
b0 4"
b0 5"
b0 N"
b0 t
b0 1"
b0 a"
1:
11
b0 *
b0 9
b0 \
b0 f
b0 r
b0 O"
b1 4
b1 A
b1 _
b1 g
b1 n
b1 `"
b1100000011 i
b0 j
b1000 k
1$
#435
0$
#440
bx U
x,"
x/"
x+"
b0 7
b0 D
b0 b
b0 l
b0 *"
bx R
bz u
bz 2"
bz \"
b100 0"
bx 6
bx C
bx J
bx %"
bx 3"
x-"
bx #"
bx 4"
bx 5"
bx N"
b100 t
b100 1"
b100 a"
1.
1=
0:
b10 *
b10 9
b10 \
b10 f
b10 r
b10 O"
b1 5
b1 B
b1 `
b1 h
b1 m
b1 ["
b10 4
b10 A
b10 _
b10 g
b10 n
b10 `"
0a
bx v
bx ("
bx P"
bx Q"
bx U"
b1000101001100 i
b1 j
b0 k
b0 $"
b0 6"
b0 L"
b0 Z"
1$
#445
0$
#450
0.
0=
01
b1001100 i
b110 j
bx $"
bx 6"
bx L"
bx Z"
b1 k
1$
#455
0$
